BSV_Test_Source/mkTb_vw.vcd
$date
	Tue Apr  4 20:00:31 2023
$end
$version
	Icarus Verilog
$end
$timescale
	1s
$end
$scope module main $end
$var reg 1 ! CLK $end
$var reg 1 " RST $end
$var reg 32 # cycle [31:0] $end
$var reg 1 $ do_cycles $end
$var reg 1 % do_fsdb $end
$var reg 1 & do_fst $end
$var reg 1 ' do_vcd $end
$var reg 2048 ( filename [2048:1] $end
$scope module top $end
$var wire 1 ! CLK $end
$var wire 1 " RST_N $end
$var wire 1 ) \counter$overflow $end
$var wire 32 * \counter$count [31:0] $end
$scope module counter $end
$var wire 1 ! CLK $end
$var wire 1 + RDY_count $end
$var wire 1 , RDY_overflow $end
$var wire 1 " RST_N $end
$var wire 1 - \cnt$EN $end
$var wire 32 . count [31:0] $end
$var wire 32 / \forcnt$D_IN [31:0] $end
$var wire 1 0 \forcnt$EN $end
$var wire 1 1 \spi_writer$EN_write $end
$var wire 8 2 \spi_writer$write_data [7:0] $end
$var wire 3 3 \spi_writer$spi [2:0] $end
$var wire 1 4 \spi_writer$RDY_write $end
$var wire 1 ) overflow $end
$var wire 32 5 \cnt$D_IN [31:0] $end
$var reg 32 6 cnt [31:0] $end
$var reg 32 7 forcnt [31:0] $end
$scope module spi_writer $end
$var wire 1 ! CLK $end
$var wire 1 1 EN_write $end
$var wire 1 8 RDY_spi $end
$var wire 1 4 RDY_write $end
$var wire 1 " RST_N $end
$var wire 1 9 WILL_FIRE_RL_spiFsm_action_l28c13 $end
$var wire 1 : WILL_FIRE_RL_spiFsm_action_l30c13 $end
$var wire 1 ; WILL_FIRE_RL_spiFsm_action_l39c15 $end
$var wire 1 < WILL_FIRE_RL_spiFsm_fsm_start $end
$var wire 1 = WILL_FIRE_RL_spiFsm_idle_l27c7 $end
$var wire 1 > \cnt$EN $end
$var wire 1 ? \mosi$D_IN $end
$var wire 1 @ \mosi$EN $end
$var wire 1 A \sck$EN $end
$var wire 1 B spiFsm_abort_whas_AND_spiFsm_abort_wget_OR_spi_ETC___d60 $end
$var wire 1 C \spiFsm_start_reg$EN $end
$var wire 1 D \spiFsm_start_reg_1$D_IN $end
$var wire 1 E \spiFsm_start_reg_1$EN $end
$var wire 1 F \spiFsm_start_wire$whas $end
$var wire 1 G \spiFsm_state_can_overlap$D_IN $end
$var wire 1 H \spiFsm_state_can_overlap$EN $end
$var wire 1 I \spiFsm_state_fired$D_IN $end
$var wire 1 J \spiFsm_state_fired$EN $end
$var wire 1 K \spiFsm_state_mkFSMstate$EN $end
$var wire 1 L \spiFsm_state_set_pw$whas $end
$var wire 1 M \ss$EN $end
$var wire 8 N \wdata$D_IN [7:0] $end
$var wire 1 O \wdata$EN $end
$var wire 8 P write_data [7:0] $end
$var wire 1 Q \ss$D_IN $end
$var wire 1 R \spiFsm_start_reg$D_IN $end
$var wire 3 S spi [2:0] $end
$var wire 1 T \sck$D_IN $end
$var wire 32 U \cnt$D_IN [31:0] $end
$var wire 1 V \MUX_mosi$write_1__VAL_1 $end
$var wire 32 W \MUX_cnt$write_1__VAL_1 [31:0] $end
$var reg 32 X cnt [31:0] $end
$var reg 1 Y mosi $end
$var reg 1 Z sck $end
$var reg 1 [ spiFsm_start_reg $end
$var reg 1 \ spiFsm_start_reg_1 $end
$var reg 1 ] spiFsm_state_can_overlap $end
$var reg 1 ^ spiFsm_state_fired $end
$var reg 4 _ spiFsm_state_mkFSMstate [3:0] $end
$var reg 4 ` \spiFsm_state_mkFSMstate$D_IN [3:0] $end
$var reg 1 a ss $end
$var reg 8 b wdata [7:0] $end
$upscope $end
$upscope $end
$upscope $end
$upscope $end
$enddefinitions $end
#0
$dumpvars
b10101010 b
0a
b1010 `
b1010 _
0^
0]
0\
0[
0Z
0Y
b10101010101010101010101010101010 X
b10101010101010101010101010101001 W
0V
b111 U
1T
b0 S
1R
1Q
b10101010 P
0O
b10101010 N
0M
0L
0K
1J
0I
1H
0G
0F
1E
0D
0C
0B
0A
0@
1?
0>
0=
0<
0;
0:
09
18
b10101010101010101010101010101010 7
b10101010101010101010101010101010 6
b10101010101010101010101010101011 5
04
b0 3
b10101010 2
01
00
b0 /
b10101010101010101010101010101010 .
1-
1,
1+
b10101010101010101010101010101010 *
0)
b110010001110101011011010111000000101110011101100110001101100100 (
1'
0&
0%
0$
b0 #
0"
x!
$end
#1
1C
1O
11
14
1B
1G
b1 5
b0 N
b0 2
b0 P
b0 b
1a
b0 _
1]
1Z
b111 3
b111 S
1Y
b110 W
b111 X
b0 7
b0 *
b0 .
b0 6
1!
b1 #
#2
1"
#5
0!
#10
1K
1I
1L
1M
b1 `
0Q
19
1D
1F
b10 5
b1 N
b1 2
b1 P
0O
01
04
0R
1<
b1 *
b1 .
b1 6
1[
1!
#11
b10 #
#15
0!
#20
0C
1@
1A
0?
1I
1L
0M
b10 `
0T
1:
1Q
09
0B
0D
0F
0O
01
04
1R
0<
b11 5
b10 N
b10 2
b10 P
b11 3
b11 S
0a
b1 _
1^
1\
0[
b10 *
b10 .
b10 6
1!
#21
b11 #
#25
0!
#30
0@
b11 `
1?
1T
0:
b100 5
b11 N
b11 2
b11 P
b110 U
1>
b11 *
b11 .
b11 6
b10 _
0\
0Z
b0 3
b0 S
0Y
1!
#31
b100 #
#35
0!
#40
1K
1@
0?
1I
1L
0T
1:
b10 `
0>
1A
b111 U
b101 5
b100 N
b100 2
b100 P
b11 _
b10 3
b10 S
1Z
b101 W
b110 X
b100 *
b100 .
b100 6
1!
#41
b101 #
#45
0!
#50
0@
b11 `
1?
1T
0:
b110 5
b101 N
b101 2
b101 P
b101 U
1>
b101 *
b101 .
b101 6
b10 _
b0 3
b0 S
0Z
1!
#51
b110 #
#55
0!
#60
1K
1@
0?
1I
1L
0T
1:
b10 `
0>
1A
b111 U
b111 5
b110 N
b110 2
b110 P
b11 _
b10 3
b10 S
1Z
b100 W
b101 X
b110 *
b110 .
b110 6
1!
#61
b111 #
#65
0!
#70
0@
b11 `
1?
1T
0:
b1000 5
b111 N
b111 2
b111 P
b100 U
1>
b111 *
b111 .
b111 6
b10 _
b0 3
b0 S
0Z
1!
#71
b1000 #
#75
0!
#80
1K
1@
0?
1I
1L
0T
1:
b10 `
0>
1A
b111 U
b1001 5
b1000 N
b1000 2
b1000 P
b11 _
b10 3
b10 S
1Z
b11 W
b100 X
b1000 *
b1000 .
b1000 6
1!
#81
b1001 #
#85
0!
#90
0@
b11 `
1?
1T
0:
b1010 5
b1001 N
b1001 2
b1001 P
b11 U
1>
b1001 *
b1001 .
b1001 6
b10 _
b0 3
b0 S
0Z
1!
#91
b1010 #
#95
0!
#100
1K
1@
0?
1I
1L
0T
1:
b10 `
0>
1A
b111 U
b1011 5
b1010 N
b1010 2
b1010 P
b11 _
b10 3
b10 S
1Z
b10 W
b11 X
b1010 *
b1010 .
b1010 6
1!
#101
b1011 #
#105
0!
#110
0@
b11 `
1?
1T
0:
b1100 5
b1011 N
b1011 2
b1011 P
b10 U
1>
b1011 *
b1011 .
b1011 6
b10 _
b0 3
b0 S
0Z
1!
#111
b1100 #
#115
0!
#120
1K
1@
0?
1I
1L
0T
1:
b10 `
0>
1A
b111 U
b1101 5
b1100 N
b1100 2
b1100 P
b11 _
b10 3
b10 S
1Z
b1 W
b10 X
b1100 *
b1100 .
b1100 6
1!
#121
b1101 #
#125
0!
#130
0@
b11 `
1?
1T
0:
b1110 5
b1101 N
b1101 2
b1101 P
b1 U
1>
b1101 *
b1101 .
b1101 6
b10 _
b0 3
b0 S
0Z
1!
#131
b1110 #
#135
0!
#140
1K
1@
0?
1I
1L
0T
1:
b10 `
0>
1A
b111 U
b1111 5
b1110 N
b1110 2
b1110 P
b11 _
b10 3
b10 S
1Z
b0 W
b1 X
b1110 *
b1110 .
b1110 6
1!
#141
b1111 #
#145
0!
#150
0@
b11 `
1?
1T
0:
b10000 5
b1111 N
b1111 2
b1111 P
b0 U
1>
b1111 *
b1111 .
b1111 6
b10 _
b0 3
b0 S
0Z
1!
#151
b10000 #
#155
0!
#160
1K
1@
0?
1I
1L
0T
1:
b10 `
0>
1A
b111 U
b10001 5
b10000 N
b10000 2
b10000 P
b11 _
b10 3
b10 S
1Z
b11111111111111111111111111111111 W
b0 X
b10000 *
b10000 .
b10000 6
1!
#161
b10001 #
#165
0!
#170
0@
b11 `
1?
1T
0:
b10010 5
b10001 N
b10001 2
b10001 P
b11111111111111111111111111111111 U
1>
b10001 *
b10001 .
b10001 6
b10 _
b0 3
b0 S
0Z
1!
#171
b10010 #
#175
0!
#180
1I
1L
1@
1;
b100 `
0>
0A
b111 U
b10011 5
b10010 N
b10010 2
b10010 P
b11 _
b10 3
b10 S
1Z
b11111111111111111111111111111110 W
b11111111111111111111111111111111 X
b10010 *
b10010 .
b10010 6
1!
#181
b10011 #
#185
0!
#190
0@
b101 `
0;
b10100 5
b10011 N
b10011 2
b10011 P
1M
b10011 *
b10011 .
b10011 6
b100 _
b11 3
b11 S
1Y
1!
#191
b10100 #
#195
0!
#200
1I
1L
b110 `
1>
0M
b10101 5
b10100 N
b10100 2
b10100 P
b111 3
b111 S
1a
b101 _
b10100 *
b10100 .
b10100 6
1!
#201
b10101 #
#205
0!
#210
1I
1L
1C
1O
11
14
1B
b10110 5
b10101 N
b10101 2
b10101 P
b0 `
1=
0>
1K
b10101 *
b10101 .
b10101 6
b110 _
b110 W
b111 X
1!
#211
b10110 #
#215
0!
#220
1K
1M
0Q
19
1D
1F
b1 `
0=
0O
01
04
0R
1<
b10111 5
b10110 N
b10110 2
b10110 P
b10101 b
b0 _
1[
b10110 *
b10110 .
b10110 6
1!
#221
b10111 #
#225
0!
#230
0C
1@
1A
0?
1I
1L
0M
b10 `
0T
1:
1Q
09
0B
0D
0F
b11000 5
b10111 N
b10111 2
b10111 P
0O
01
04
1R
0<
b10111 *
b10111 .
b10111 6
b11 3
b11 S
0a
b1 _
1\
0[
1!
#231
b11000 #
#235
0!
#240
0@
b11 `
1?
1T
0:
b110 U
1>
b11001 5
b11000 N
b11000 2
b11000 P
b10 _
0\
0Z
b0 3
b0 S
0Y
b11000 *
b11000 .
b11000 6
1!
#241
b11001 #
#245
0!
#250
1K
1@
0?
1I
1L
0T
1:
b11010 5
b11001 N
b11001 2
b11001 P
b10 `
0>
1A
b111 U
b11001 *
b11001 .
b11001 6
b11 _
b10 3
b10 S
1Z
b101 W
b110 X
1!
#251
b11010 #
#255
0!
#260
0@
b11 `
1?
1T
0:
b101 U
1>
b11011 5
b11010 N
b11010 2
b11010 P
b10 _
b0 3
b0 S
0Z
b11010 *
b11010 .
b11010 6
1!
#261
b11011 #
#265
0!
#270
1K
1@
0?
1I
1L
0T
1:
b11100 5
b11011 N
b11011 2
b11011 P
b10 `
0>
1A
b111 U
b11011 *
b11011 .
b11011 6
b11 _
b10 3
b10 S
1Z
b100 W
b101 X
1!
#271
b11100 #
#275
0!
#280
0@
b11 `
1?
1T
0:
b100 U
1>
b11101 5
b11100 N
b11100 2
b11100 P
b10 _
b0 3
b0 S
0Z
b11100 *
b11100 .
b11100 6
1!
#281
b11101 #
#285
0!
#290
1K
1@
1I
1L
0T
1:
b11110 5
b11101 N
b11101 2
b11101 P
b10 `
0>
1A
b111 U
1V
b11101 *
b11101 .
b11101 6
b11 _
b10 3
b10 S
1Z
b11 W
b100 X
1!
#291
b11110 #
#295
0!
#300
0@
b11 `
1T
0:
b11 U
1>
b11111 5
b11110 N
b11110 2
b11110 P
b10 _
0Z
b1 3
b1 S
1Y
b11110 *
b11110 .
b11110 6
1!
#301
b11111 #
#305
0!
#310
1K
1@
0?
1I
1L
0T
1:
b100000 5
b11111 N
b11111 2
b11111 P
b10 `
0>
1A
b111 U
0V
b11111 *
b11111 .
b11111 6
b11 _
b11 3
b11 S
1Z
b10 W
b11 X
1!
#311
b100000 #
#315
0!
#320
0@
b11 `
1?
1T
0:
b10 U
1>
b100001 5
b100000 N
b100000 2
b100000 P
b10 _
0Z
b0 3
b0 S
0Y
b100000 *
b100000 .
b100000 6
1!
#321
b100001 #
#325
0!
#330
1K
1@
1I
1L
0T
1:
b100010 5
b100001 N
b100001 2
b100001 P
b10 `
0>
1A
b111 U
1V
b100001 *
b100001 .
b100001 6
b11 _
b10 3
b10 S
1Z
b1 W
b10 X
1!
#331
b100010 #
#335
0!
#340
0@
b11 `
1T
0:
b1 U
1>
b100011 5
b100010 N
b100010 2
b100010 P
b10 _
0Z
b1 3
b1 S
1Y
b100010 *
b100010 .
b100010 6
1!
#341
b100011 #
#345
0!
#350
1K
1@
0?
1I
1L
0T
1:
b100100 5
b100011 N
b100011 2
b100011 P
b10 `
0>
1A
b111 U
0V
b100011 *
b100011 .
b100011 6
b11 _
b11 3
b11 S
1Z
b0 W
b1 X
1!
#351
b100100 #
#355
0!
#360
0@
b11 `
1?
1T
0:
b0 U
1>
b100101 5
b100100 N
b100100 2
b100100 P
b10 _
0Z
b0 3
b0 S
0Y
b100100 *
b100100 .
b100100 6
1!
#361
b100101 #
#365
0!
#370
1K
1@
1I
1L
0T
1:
b100110 5
b100101 N
b100101 2
b100101 P
b10 `
0>
1A
b111 U
1V
b100101 *
b100101 .
b100101 6
b11 _
b10 3
b10 S
1Z
b11111111111111111111111111111111 W
b0 X
1!
#371
b100110 #
#375
0!
#380
0@
b11 `
1T
0:
b11111111111111111111111111111111 U
1>
b100111 5
b100110 N
b100110 2
b100110 P
b10 _
0Z
b1 3
b1 S
1Y
b100110 *
b100110 .
b100110 6
1!
#381
b100111 #
#385
0!
#390
1I
1L
1@
1;
b101000 5
b100111 N
b100111 2
b100111 P
b100 `
0>
0A
b111 U
0V
b100111 *
b100111 .
b100111 6
b11 _
b11 3
b11 S
1Z
b11111111111111111111111111111110 W
b11111111111111111111111111111111 X
1!
#391
b101000 #
#395
0!
#400
0@
b101 `
0;
1M
b101001 5
b101000 N
b101000 2
b101000 P
b100 _
b101000 *
b101000 .
b101000 6
1!
#401
b101001 #
#405
0!
#410
1I
1L
b101010 5
b101001 N
b101001 2
b101001 P
b110 `
1>
0M
b101001 *
b101001 .
b101001 6
b111 3
b111 S
1a
b101 _
1!
#411
b101010 #
#415
0!
#420
1I
1L
1C
1O
11
14
1B
b0 `
1=
0>
1K
b101011 5
b101010 N
b101010 2
b101010 P
b110 _
b110 W
b111 X
b101010 *
b101010 .
b101010 6
1!
#421
b101011 #
#425
0!
#430
1K
1M
0Q
19
1D
1F
b101100 5
b101011 N
b101011 2
b101011 P
b1 `
0=
0O
01
04
0R
1<
b101011 *
b101011 .
b101011 6
b101010 b
b0 _
1[
1!
#431
b101100 #
#435
0!
#440
0C
1@
1A
0?
1I
1L
0M
b10 `
0T
1:
1Q
09
0B
0D
0F
0O
01
04
1R
0<
b101101 5
b101100 N
b101100 2
b101100 P
b11 3
b11 S
0a
b1 _
1\
0[
b101100 *
b101100 .
b101100 6
1!
#441
b101101 #
#445
0!
#450
0@
b11 `
1?
1T
0:
b101110 5
b101101 N
b101101 2
b101101 P
b110 U
1>
b101101 *
b101101 .
b101101 6
b10 _
0\
0Z
b0 3
b0 S
0Y
1!
#451
b101110 #
#455
0!
#460
1K
1@
0?
1I
1L
0T
1:
b10 `
0>
1A
b111 U
b101111 5
b101110 N
b101110 2
b101110 P
b11 _
b10 3
b10 S
1Z
b101 W
b110 X
b101110 *
b101110 .
b101110 6
1!
#461
b101111 #
#465
0!
#470
0@
b11 `
1?
1T
0:
b110000 5
b101111 N
b101111 2
b101111 P
b101 U
1>
b101111 *
b101111 .
b101111 6
b10 _
b0 3
b0 S
0Z
1!
#471
b110000 #
#475
0!
#480
1K
1@
1I
1L
0T
1:
b10 `
0>
1A
b111 U
1V
b110001 5
b110000 N
b110000 2
b110000 P
b11 _
b10 3
b10 S
1Z
b100 W
b101 X
b110000 *
b110000 .
b110000 6
1!
#481
b110001 #
#485
0!
#490
0@
b11 `
1T
0:
b110010 5
b110001 N
b110001 2
b110001 P
b100 U
1>
b110001 *
b110001 .
b110001 6
b10 _
0Z
b1 3
b1 S
1Y
1!
#491
b110010 #
#495
0!
#500
1K
1@
0?
1I
1L
0T
1:
b10 `
0>
1A
b111 U
0V
b110011 5
b110010 N
b110010 2
b110010 P
b11 _
b11 3
b11 S
1Z
b11 W
b100 X
b110010 *
b110010 .
b110010 6
1!
#501
b110011 #
#505
0!
#510
0@
b11 `
1?
1T
0:
b110100 5
b110011 N
b110011 2
b110011 P
b11 U
1>
b110011 *
b110011 .
b110011 6
b10 _
0Z
b0 3
b0 S
0Y
1!
#511
b110100 #
#515
0!
#520
1K
1@
1I
1L
0T
1:
b10 `
0>
1A
b111 U
1V
b110101 5
b110100 N
b110100 2
b110100 P
b11 _
b10 3
b10 S
1Z
b10 W
b11 X
b110100 *
b110100 .
b110100 6
1!
#521
b110101 #
#525
0!
#530
0@
b11 `
1T
0:
b110110 5
b110101 N
b110101 2
b110101 P
b10 U
1>
b110101 *
b110101 .
b110101 6
b10 _
0Z
b1 3
b1 S
1Y
1!
#531
b110110 #
#535
0!
#540
1K
1@
0?
1I
1L
0T
1:
b10 `
0>
1A
b111 U
0V
b110111 5
b110110 N
b110110 2
b110110 P
b11 _
b11 3
b11 S
1Z
b1 W
b10 X
b110110 *
b110110 .
b110110 6
1!
#541
b110111 #
#545
0!
#550
0@
b11 `
1?
1T
0:
b111000 5
b110111 N
b110111 2
b110111 P
b1 U
1>
b110111 *
b110111 .
b110111 6
b10 _
0Z
b0 3
b0 S
0Y
1!
#551
b111000 #
#555
0!
#560
1K
1@
1I
1L
0T
1:
b10 `
0>
1A
b111 U
1V
b111001 5
b111000 N
b111000 2
b111000 P
b11 _
b10 3
b10 S
1Z
b0 W
b1 X
b111000 *
b111000 .
b111000 6
1!
#561
b111001 #
#565
0!
#570
0@
b11 `
1T
0:
b111010 5
b111001 N
b111001 2
b111001 P
b0 U
1>
b111001 *
b111001 .
b111001 6
b10 _
0Z
b1 3
b1 S
1Y
1!
#571
b111010 #
#575
0!
#580
1K
1@
0?
1I
1L
0T
1:
b10 `
0>
1A
b111 U
0V
b111011 5
b111010 N
b111010 2
b111010 P
b11 _
b11 3
b11 S
1Z
b11111111111111111111111111111111 W
b0 X
b111010 *
b111010 .
b111010 6
1!
#581
b111011 #
#585
0!
#590
0@
b11 `
1?
1T
0:
b111100 5
b111011 N
b111011 2
b111011 P
b11111111111111111111111111111111 U
1>
b111011 *
b111011 .
b111011 6
b10 _
0Z
b0 3
b0 S
0Y
1!
#591
b111100 #
#595
0!
#600
1I
1L
1@
1;
b100 `
0>
0A
b111 U
b111101 5
b111100 N
b111100 2
b111100 P
b11 _
b10 3
b10 S
1Z
b11111111111111111111111111111110 W
b11111111111111111111111111111111 X
b111100 *
b111100 .
b111100 6
1!
#601
b111101 #
#605
0!
#610
0@
b101 `
0;
b111110 5
b111101 N
b111101 2
b111101 P
1M
b111101 *
b111101 .
b111101 6
b100 _
b11 3
b11 S
1Y
1!
#611
b111110 #
#615
0!
#620
1I
1L
b110 `
1>
0M
b111111 5
b111110 N
b111110 2
b111110 P
b111 3
b111 S
1a
b101 _
b111110 *
b111110 .
b111110 6
1!
#621
b111111 #
#625
0!
#630
1I
1L
1C
1O
11
14
1B
b1000000 5
b111111 N
b111111 2
b111111 P
b0 `
1=
0>
1K
b111111 *
b111111 .
b111111 6
b110 _
b110 W
b111 X
1!
#631
b1000000 #
#635
0!
#640
1K
1M
0Q
19
1D
1F
b1 `
0=
0O
01
04
0R
1<
b1000001 5
b1000000 N
b1000000 2
b1000000 P
b111111 b
b0 _
1[
b1000000 *
b1000000 .
b1000000 6
1!
#641
b1000001 #
#645
0!
#650
0C
1@
1A
0?
1I
1L
0M
b10 `
0T
1:
1Q
09
0B
0D
0F
b1000010 5
b1000001 N
b1000001 2
b1000001 P
0O
01
04
1R
0<
b1000001 *
b1000001 .
b1000001 6
b11 3
b11 S
0a
b1 _
1\
0[
1!
#651
b1000010 #
#655
0!
#660
0@
b11 `
1?
1T
0:
b110 U
1>
b1000011 5
b1000010 N
b1000010 2
b1000010 P
b10 _
0\
0Z
b0 3
b0 S
0Y
b1000010 *
b1000010 .
b1000010 6
1!
#661
b1000011 #
#665
0!
#670
1K
1@
0?
1I
1L
0T
1:
b1000100 5
b1000011 N
b1000011 2
b1000011 P
b10 `
0>
1A
b111 U
b1000011 *
b1000011 .
b1000011 6
b11 _
b10 3
b10 S
1Z
b101 W
b110 X
1!
#671
b1000100 #
#675
0!
#680
0@
b11 `
1?
1T
0:
b101 U
1>
b1000101 5
b1000100 N
b1000100 2
b1000100 P
b10 _
b0 3
b0 S
0Z
b1000100 *
b1000100 .
b1000100 6
1!
#681
b1000101 #
#685
0!
#690
1K
1@
1I
1L
0T
1:
b1000110 5
b1000101 N
b1000101 2
b1000101 P
b10 `
0>
1A
b111 U
1V
b1000101 *
b1000101 .
b1000101 6
b11 _
b10 3
b10 S
1Z
b100 W
b101 X
1!
#691
b1000110 #
#695
0!
#700
0@
b11 `
1T
0:
b100 U
1>
b1000111 5
b1000110 N
b1000110 2
b1000110 P
b10 _
0Z
b1 3
b1 S
1Y
b1000110 *
b1000110 .
b1000110 6
1!
#701
b1000111 #
#705
0!
#710
1K
1@
1I
1L
0T
1:
b1001000 5
b1000111 N
b1000111 2
b1000111 P
b10 `
0>
1A
b111 U
b1000111 *
b1000111 .
b1000111 6
b11 _
b11 3
b11 S
1Z
b11 W
b100 X
1!
#711
b1001000 #
#715
0!
#720
0@
b11 `
1T
0:
b11 U
1>
b1001001 5
b1001000 N
b1001000 2
b1001000 P
b10 _
b1 3
b1 S
0Z
b1001000 *
b1001000 .
b1001000 6
1!
#721
b1001001 #
#725
0!
#730
1K
1@
1I
1L
0T
1:
b1001010 5
b1001001 N
b1001001 2
b1001001 P
b10 `
0>
1A
b111 U
b1001001 *
b1001001 .
b1001001 6
b11 _
b11 3
b11 S
1Z
b10 W
b11 X
1!
#731
b1001010 #
#735
0!
#740
0@
b11 `
1T
0:
b10 U
1>
b1001011 5
b1001010 N
b1001010 2
b1001010 P
b10 _
b1 3
b1 S
0Z
b1001010 *
b1001010 .
b1001010 6
1!
#741
b1001011 #
#745
0!
#750
1K
1@
1I
1L
0T
1:
b1001100 5
b1001011 N
b1001011 2
b1001011 P
b10 `
0>
1A
b111 U
b1001011 *
b1001011 .
b1001011 6
b11 _
b11 3
b11 S
1Z
b1 W
b10 X
1!
#751
b1001100 #
#755
0!
#760
0@
b11 `
1T
0:
b1 U
1>
b1001101 5
b1001100 N
b1001100 2
b1001100 P
b10 _
b1 3
b1 S
0Z
b1001100 *
b1001100 .
b1001100 6
1!
#761
b1001101 #
#765
0!
#770
1K
1@
1I
1L
0T
1:
b1001110 5
b1001101 N
b1001101 2
b1001101 P
b10 `
0>
1A
b111 U
b1001101 *
b1001101 .
b1001101 6
b11 _
b11 3
b11 S
1Z
b0 W
b1 X
1!
#771
b1001110 #
#775
0!
#780
0@
b11 `
1T
0:
b0 U
1>
b1001111 5
b1001110 N
b1001110 2
b1001110 P
b10 _
b1 3
b1 S
0Z
b1001110 *
b1001110 .
b1001110 6
1!
#781
b1001111 #
#785
0!
#790
1K
1@
1I
1L
0T
1:
b1010000 5
b1001111 N
b1001111 2
b1001111 P
b10 `
0>
1A
b111 U
b1001111 *
b1001111 .
b1001111 6
b11 _
b11 3
b11 S
1Z
b11111111111111111111111111111111 W
b0 X
1!
#791
b1010000 #
#795
0!
#800
0@
b11 `
1T
0:
b11111111111111111111111111111111 U
1>
b1010001 5
b1010000 N
b1010000 2
b1010000 P
b10 _
b1 3
b1 S
0Z
b1010000 *
b1010000 .
b1010000 6
1!
#801
b1010001 #
#805
0!
#810
1I
1L
1@
1;
b1010010 5
b1010001 N
b1010001 2
b1010001 P
b100 `
0>
0A
b111 U
0V
b1010001 *
b1010001 .
b1010001 6
b11 _
b11 3
b11 S
1Z
b11111111111111111111111111111110 W
b11111111111111111111111111111111 X
1!
#811
b1010010 #
#815
0!
#820
0@
b101 `
0;
1M
b1010011 5
b1010010 N
b1010010 2
b1010010 P
b100 _
b1010010 *
b1010010 .
b1010010 6
1!
#821
b1010011 #
#825
0!
#830
1I
1L
b1010100 5
b1010011 N
b1010011 2
b1010011 P
b110 `
1>
0M
b1010011 *
b1010011 .
b1010011 6
b111 3
b111 S
1a
b101 _
1!
#831
b1010100 #
#835
0!
#840
1I
1L
1C
1O
11
14
1B
b0 `
1=
0>
1K
b1010101 5
b1010100 N
b1010100 2
b1010100 P
b110 _
b110 W
b111 X
b1010100 *
b1010100 .
b1010100 6
1!
#841
b1010101 #
#845
0!
#850
1K
1M
0Q
19
1D
1F
b1010110 5
b1010101 N
b1010101 2
b1010101 P
b1 `
0=
0O
01
04
0R
1<
b1010101 *
b1010101 .
b1010101 6
b1010100 b
b0 _
1[
1!
#851
b1010110 #
#855
0!
#860
0C
1@
1A
0?
1I
1L
0M
b10 `
0T
1:
1Q
09
0B
0D
0F
0O
01
04
1R
0<
b1010111 5
b1010110 N
b1010110 2
b1010110 P
b11 3
b11 S
0a
b1 _
1\
0[
b1010110 *
b1010110 .
b1010110 6
1!
#861
b1010111 #
#865
0!
#870
0@
b11 `
1?
1T
0:
b1011000 5
b1010111 N
b1010111 2
b1010111 P
b110 U
1>
b1010111 *
b1010111 .
b1010111 6
b10 _
0\
0Z
b0 3
b0 S
0Y
1!
#871
b1011000 #
#875
0!
#880
1K
1@
1I
1L
0T
1:
b10 `
0>
1A
b111 U
1V
b1011001 5
b1011000 N
b1011000 2
b1011000 P
b11 _
b10 3
b10 S
1Z
b101 W
b110 X
b1011000 *
b1011000 .
b1011000 6
1!
#881
b1011001 #
#885
0!
#890
0@
b11 `
1T
0:
b1011010 5
b1011001 N
b1011001 2
b1011001 P
b101 U
1>
b1011001 *
b1011001 .
b1011001 6
b10 _
0Z
b1 3
b1 S
1Y
1!
#891
b1011010 #
#895
0!
#900
1K
1@
0?
1I
1L
0T
1:
b10 `
0>
1A
b111 U
0V
b1011011 5
b1011010 N
b1011010 2
b1011010 P
b11 _
b11 3
b11 S
1Z
b100 W
b101 X
b1011010 *
b1011010 .
b1011010 6
1!
#901
b1011011 #
#905
0!
#910
0@
b11 `
1?
1T
0:
b1011100 5
b1011011 N
b1011011 2
b1011011 P
b100 U
1>
b1011011 *
b1011011 .
b1011011 6
b10 _
0Z
b0 3
b0 S
0Y
1!
#911
b1011100 #
#915
0!
#920
1K
1@
1I
1L
0T
1:
b10 `
0>
1A
b111 U
1V
b1011101 5
b1011100 N
b1011100 2
b1011100 P
b11 _
b10 3
b10 S
1Z
b11 W
b100 X
b1011100 *
b1011100 .
b1011100 6
1!
#921
b1011101 #
#925
0!
#930
0@
b11 `
1T
0:
b1011110 5
b1011101 N
b1011101 2
b1011101 P
b11 U
1>
b1011101 *
b1011101 .
b1011101 6
b10 _
0Z
b1 3
b1 S
1Y
1!
#931
b1011110 #
#935
0!
#940
1K
1@
0?
1I
1L
0T
1:
b10 `
0>
1A
b111 U
0V
b1011111 5
b1011110 N
b1011110 2
b1011110 P
b11 _
b11 3
b11 S
1Z
b10 W
b11 X
b1011110 *
b1011110 .
b1011110 6
1!
#941
b1011111 #
#945
0!
#950
0@
b11 `
1?
1T
0:
b1100000 5
b1011111 N
b1011111 2
b1011111 P
b10 U
1>
b1011111 *
b1011111 .
b1011111 6
b10 _
0Z
b0 3
b0 S
0Y
1!
#951
b1100000 #
#955
0!
#960
1K
1@
1I
1L
0T
1:
b10 `
0>
1A
b111 U
1V
b1100001 5
b1100000 N
b1100000 2
b1100000 P
b11 _
b10 3
b10 S
1Z
b1 W
b10 X
b1100000 *
b1100000 .
b1100000 6
1!
#961
b1100001 #
#965
0!
#970
0@
b11 `
1T
0:
b1100010 5
b1100001 N
b1100001 2
b1100001 P
b1 U
1>
b1100001 *
b1100001 .
b1100001 6
b10 _
0Z
b1 3
b1 S
1Y
1!
#971
b1100010 #
#975
0!
#980
1K
1@
0?
1I
1L
0T
1:
b10 `
0>
1A
b111 U
0V
b1100011 5
b1100010 N
b1100010 2
b1100010 P
b11 _
b11 3
b11 S
1Z
b0 W
b1 X
b1100010 *
b1100010 .
b1100010 6
1!
#981
b1100011 #
#985
0!
#990
0@
b11 `
1?
1T
0:
b1100100 5
b1100011 N
b1100011 2
b1100011 P
b0 U
1>
b1100011 *
b1100011 .
b1100011 6
b10 _
0Z
b0 3
b0 S
0Y
1!
#991
b1100100 #
#995
0!
#1000
1K
1@
0?
1I
1L
0T
1:
b10 `
0>
1A
b111 U
b1100101 5
b1100100 N
b1100100 2
b1100100 P
b11 _
b10 3
b10 S
1Z
b11111111111111111111111111111111 W
b0 X
b1100100 *
b1100100 .
b1100100 6
1!
#1001
b1100101 #
#1005
0!
#1010
0@
b11 `
1?
1T
0:
b1100110 5
b1100101 N
b1100101 2
b1100101 P
b11111111111111111111111111111111 U
1>
b1100101 *
b1100101 .
b1100101 6
b10 _
b0 3
b0 S
0Z
1!
#1011
b1100110 #
