2.DecCounter/mkTb_bw.vcd
$date
	Tue Dec 20 19:30:15 2022
$end
$version
	Bluespec VCD dumper 2.1
$end
$timescale
	1 us
$end
$scope module main $end
$scope module top $end
$var reg 1 ! CLK $end
$var reg 1 ! CLK $end
$var reg 1 " RST_N $end
$scope module counter $end
$var reg 1 ! CLK $end
$var reg 1 # RST_N $end
$var reg 4 $ b__h108 $end
$var reg 1 % cnt_ULT_9___d2 $end
$var reg 4 ( cnt $end
$var reg 4 ) mycnt $end
$upscope $end
$upscope $end
$upscope $end
$enddefinitions $end
1!
0"
0#
b1010 $
0%
b0 (
b0 )
b0 $
1%
#5
0!
1"
1#
#10
b1 $
1!
b1 (
b10 )
#15
0!
#20
b10 $
1!
b10 (
b11 )
#25
0!
#30
b11 $
1!
b11 (
b100 )
#35
0!
#40
b100 $
1!
b100 (
b101 )
#45
0!
#50
b101 $
1!
b101 (
b110 )
#55
0!
#60
b110 $
1!
b110 (
b111 )
#65
0!
#70
b111 $
1!
b111 (
b1000 )
#75
0!
#80
b1000 $
1!
b1000 (
b1001 )
#85
0!
#90
b1001 $
0%
1!
b1001 (
b1010 )
