2.DecCounter/mydump2.vcd
$date
	Wed Mar 29 13:12:43 2023
$end
$version
	Icarus Verilog
$end
$timescale
	1ns
$end
$scope module testbench $end
$var reg 1 ! CLK $end
$var reg 1 " RST_N $end
$var reg 8 # \spi_writer$hook_write_data [7:0] $end
$var reg 3 $ \spi_writer$spi [2:0] $end
$scope module U1 $end
$var wire 1 ! CLK $end
$var wire 1 % \MUX_start_reg$write_1__SEL_2 $end
$var wire 1 & \MUX_state_mkFSMstate$write_1__SEL_1 $end
$var wire 1 ' RDY_count $end
$var wire 1 ( RDY_overflow $end
$var wire 1 " RST_N $end
$var wire 1 ) WILL_FIRE_RL_action_f_init_l72c10 $end
$var wire 1 * WILL_FIRE_RL_action_l73c13 $end
$var wire 1 + WILL_FIRE_RL_fsm_start $end
$var wire 1 , WILL_FIRE_RL_idle_l72c10 $end
$var wire 1 - WILL_FIRE_RL_idle_l72c10_1 $end
$var wire 1 . abort_whas_AND_abort_wget_OR_state_mkFSMstate__ETC___d68 $end
$var wire 1 / \cnt$EN $end
$var wire 32 0 count [31:0] $end
$var wire 1 1 \forcnt$EN $end
$var wire 1 2 \running$D_IN $end
$var wire 1 3 \running$EN $end
$var wire 1 4 \spi_writer$EN_write $end
$var wire 1 5 \spi_writer$RDY_write $end
$var wire 8 6 \spi_writer$hook_write_data [7:0] $end
$var wire 3 7 \spi_writer$spi [2:0] $end
$var wire 1 8 \start_reg$EN $end
$var wire 1 9 \start_reg_1$D_IN $end
$var wire 1 : \start_reg_1$EN $end
$var wire 1 ; \start_wire$whas $end
$var wire 1 < \state_can_overlap$D_IN $end
$var wire 1 = \state_can_overlap$EN $end
$var wire 1 > \state_fired$D_IN $end
$var wire 1 ? \state_fired$EN $end
$var wire 1 @ \state_mkFSMstate$EN $end
$var wire 1 A \state_set_pw$whas $end
$var wire 1 B \start_reg$D_IN $end
$var wire 8 C \spi_writer$write_data [7:0] $end
$var wire 1 D overflow $end
$var wire 1 E forcnt_6_ULT_10___d37 $end
$var wire 32 F \forcnt$D_IN [31:0] $end
$var wire 32 G \cnt$D_IN [31:0] $end
$var wire 32 H \MUX_forcnt$write_1__VAL_1 [31:0] $end
$var reg 32 I cnt [31:0] $end
$var reg 32 J forcnt [31:0] $end
$var reg 1 K running $end
$var reg 1 L start_reg $end
$var reg 1 M start_reg_1 $end
$var reg 1 N state_can_overlap $end
$var reg 1 O state_fired $end
$var reg 3 P state_mkFSMstate [2:0] $end
$var reg 3 Q \state_mkFSMstate$D_IN [2:0] $end
$upscope $end
$upscope $end
$enddefinitions $end
#0
$dumpvars
b11 Q
b10 P
0O
0N
0M
0L
0K
b10101010101010101010101010101010 J
b10101010101010101010101010101010 I
b10101010101010101010101010101011 H
b10101010101010101010101010101011 G
b10101010101010101010101010101011 F
0E
0D
b10101010 C
1B
1A
1@
1?
1>
1=
1<
0;
1:
09
08
b111 7
b0 6
z5
04
03
12
11
b10101010101010101010101010101010 0
1/
0.
0-
0,
0+
0*
0)
1(
1'
0&
0%
b111 $
b0 #
0"
x!
$end
#1
18
13
1%
0>
0A
1.
b10 Q
01
0@
b0 F
b1 G
b0 C
b0 P
1N
b1 H
1E
b0 J
b0 0
b0 I
1!
#2
1"
#5
0!
#10
1@
1>
1A
11
b1 Q
1)
19
1;
0B
1+
03
0%
b10 G
b1 C
1L
1K
b1 0
b1 I
1!
#15
0!
#20
x@
01
b10 Q
x>
xA
0)
0.
x4
x*
09
0;
08
1B
0+
b11 G
b10 C
b1 P
1O
1M
0L
b10 0
b10 I
1!
#25
0!
#30
b100 G
b11 C
xO
0M
b11 0
b11 I
1!
b10 #
b10 6
#35
0!
#40
b101 G
b100 C
b100 0
b100 I
1!
b11 $
b11 7
#45
0!
#50
b110 G
b101 C
b101 0
b101 I
1!
b0 $
b0 7
#55
0!
#60
b111 G
b110 C
b110 0
b110 I
1!
b10 $
b10 7
#65
0!
#70
b1000 G
b111 C
b111 0
b111 I
1!
b0 $
b0 7
#75
0!
#80
b1001 G
b1000 C
b1000 0
b1000 I
1!
b10 $
b10 7
#85
0!
#90
b1010 G
b1001 C
b1001 0
b1001 I
1!
b0 $
b0 7
#95
0!
#100
b1011 G
b1010 C
b1010 0
b1010 I
1!
b10 $
b10 7
#105
0!
#110
b1100 G
b1011 C
b1011 0
b1011 I
1!
b0 $
b0 7
#115
0!
#120
b1101 G
b1100 C
b1100 0
b1100 I
1!
b10 $
b10 7
#125
0!
#130
b1110 G
b1101 C
b1101 0
b1101 I
1!
b0 $
b0 7
#135
0!
#140
b1111 G
b1110 C
b1110 0
b1110 I
1!
b10 $
b10 7
#145
0!
#150
b10000 G
b1111 C
b1111 0
b1111 I
1!
b0 $
b0 7
#155
0!
#160
b10001 G
b10000 C
b10000 0
b10000 I
1!
b10 $
b10 7
#165
0!
#170
b10010 G
b10001 C
b10001 0
b10001 I
1!
b1 $
b1 7
#175
0!
#180
b10011 G
b10010 C
b10010 0
b10010 I
1!
b11 $
b11 7
#185
0!
#190
b10100 G
b10011 C
b10011 0
b10011 I
1!
b0 $
b0 7
#195
0!
#200
b10101 G
b10100 C
b10100 0
b10100 I
1!
b10 $
b10 7
#205
0!
#210
b10110 G
b10101 C
b10101 0
b10101 I
1!
b11 $
b11 7
#215
0!
#220
b10111 G
b10110 C
b10110 0
b10110 I
1!
b111 $
b111 7
#225
0!
#230
b11000 G
b10111 C
b10111 0
b10111 I
1!
#235
0!
#240
b11001 G
b11000 C
b11000 0
b11000 I
1!
b10111 #
b10111 6
#245
0!
#250
b11010 G
b11001 C
b11001 0
b11001 I
1!
b11 $
b11 7
#255
0!
#260
b11011 G
b11010 C
b11010 0
b11010 I
1!
b0 $
b0 7
#265
0!
#270
b11100 G
b11011 C
b11011 0
b11011 I
1!
b10 $
b10 7
#275
0!
#280
b11101 G
b11100 C
b11100 0
b11100 I
1!
b0 $
b0 7
#285
0!
#290
b11110 G
b11101 C
b11101 0
b11101 I
1!
b10 $
b10 7
#295
0!
#300
b11111 G
b11110 C
b11110 0
b11110 I
1!
b0 $
b0 7
#305
0!
#310
b100000 G
b11111 C
b11111 0
b11111 I
1!
b10 $
b10 7
#315
0!
#320
b100001 G
b100000 C
b100000 0
b100000 I
1!
b1 $
b1 7
#325
0!
#330
b100010 G
b100001 C
b100001 0
b100001 I
1!
b11 $
b11 7
#335
0!
#340
b100011 G
b100010 C
b100010 0
b100010 I
1!
b0 $
b0 7
#345
0!
#350
b100100 G
b100011 C
b100011 0
b100011 I
1!
b10 $
b10 7
#355
0!
#360
b100101 G
b100100 C
b100100 0
b100100 I
1!
b1 $
b1 7
#365
0!
#370
b100110 G
b100101 C
b100101 0
b100101 I
1!
b11 $
b11 7
#375
0!
#380
b100111 G
b100110 C
b100110 0
b100110 I
1!
b1 $
b1 7
#385
0!
#390
b101000 G
b100111 C
b100111 0
b100111 I
1!
b11 $
b11 7
#395
0!
#400
b101001 G
b101000 C
b101000 0
b101000 I
1!
b1 $
b1 7
#405
0!
#410
b101010 G
b101001 C
b101001 0
b101001 I
1!
b11 $
b11 7
#415
0!
#420
b101011 G
b101010 C
b101010 0
b101010 I
1!
#425
0!
#430
b101100 G
b101011 C
b101011 0
b101011 I
1!
b111 $
b111 7
#435
0!
#440
b101101 G
b101100 C
b101100 0
b101100 I
1!
#445
0!
#450
b101110 G
b101101 C
b101101 0
b101101 I
1!
b101100 #
b101100 6
#455
0!
#460
b101111 G
b101110 C
b101110 0
b101110 I
1!
b11 $
b11 7
#465
0!
#470
b110000 G
b101111 C
b101111 0
b101111 I
1!
b0 $
b0 7
#475
0!
#480
b110001 G
b110000 C
b110000 0
b110000 I
1!
b10 $
b10 7
#485
0!
#490
b110010 G
b110001 C
b110001 0
b110001 I
1!
b0 $
b0 7
#495
0!
#500
b110011 G
b110010 C
b110010 0
b110010 I
1!
b10 $
b10 7
#505
0!
#510
b110100 G
b110011 C
b110011 0
b110011 I
1!
b1 $
b1 7
#515
0!
#520
b110101 G
b110100 C
b110100 0
b110100 I
1!
b11 $
b11 7
#525
0!
#530
b110110 G
b110101 C
b110101 0
b110101 I
1!
b0 $
b0 7
#535
0!
#540
b110111 G
b110110 C
b110110 0
b110110 I
1!
b10 $
b10 7
#545
0!
#550
b111000 G
b110111 C
b110111 0
b110111 I
1!
b1 $
b1 7
#555
0!
#560
b111001 G
b111000 C
b111000 0
b111000 I
1!
b11 $
b11 7
#565
0!
#570
b111010 G
b111001 C
b111001 0
b111001 I
1!
b1 $
b1 7
#575
0!
#580
b111011 G
b111010 C
b111010 0
b111010 I
1!
b11 $
b11 7
#585
0!
#590
b111100 G
b111011 C
b111011 0
b111011 I
1!
b0 $
b0 7
#595
0!
#600
b111101 G
b111100 C
b111100 0
b111100 I
1!
b10 $
b10 7
#605
0!
#610
b111110 G
b111101 C
b111101 0
b111101 I
1!
b0 $
b0 7
#615
0!
#620
b111111 G
b111110 C
b111110 0
b111110 I
1!
b10 $
b10 7
#625
0!
#630
b1000000 G
b111111 C
b111111 0
b111111 I
1!
b11 $
b11 7
#635
0!
#640
b1000001 G
b1000000 C
b1000000 0
b1000000 I
1!
b111 $
b111 7
#645
0!
#650
b1000010 G
b1000001 C
b1000001 0
b1000001 I
1!
#655
0!
#660
b1000011 G
b1000010 C
b1000010 0
b1000010 I
1!
b1000001 #
b1000001 6
#665
0!
#670
b1000100 G
b1000011 C
b1000011 0
b1000011 I
1!
b11 $
b11 7
#675
0!
#680
b1000101 G
b1000100 C
b1000100 0
b1000100 I
1!
b0 $
b0 7
#685
0!
#690
b1000110 G
b1000101 C
b1000101 0
b1000101 I
1!
b10 $
b10 7
#695
0!
#700
b1000111 G
b1000110 C
b1000110 0
b1000110 I
1!
b1 $
b1 7
#705
0!
#710
b1001000 G
b1000111 C
b1000111 0
b1000111 I
1!
b11 $
b11 7
#715
0!
#720
b1001001 G
b1001000 C
b1001000 0
b1001000 I
1!
b0 $
b0 7
#725
0!
#730
b1001010 G
b1001001 C
b1001001 0
b1001001 I
1!
b10 $
b10 7
#735
0!
#740
b1001011 G
b1001010 C
b1001010 0
b1001010 I
1!
b0 $
b0 7
#745
0!
#750
b1001100 G
b1001011 C
b1001011 0
b1001011 I
1!
b10 $
b10 7
#755
0!
#760
b1001101 G
b1001100 C
b1001100 0
b1001100 I
1!
b0 $
b0 7
#765
0!
#770
b1001110 G
b1001101 C
b1001101 0
b1001101 I
1!
b10 $
b10 7
#775
0!
#780
b1001111 G
b1001110 C
b1001110 0
b1001110 I
1!
b0 $
b0 7
#785
0!
#790
b1010000 G
b1001111 C
b1001111 0
b1001111 I
1!
b10 $
b10 7
#795
0!
#800
b1010001 G
b1010000 C
b1010000 0
b1010000 I
1!
b0 $
b0 7
#805
0!
#810
b1010010 G
b1010001 C
b1010001 0
b1010001 I
1!
b10 $
b10 7
#815
0!
#820
b1010011 G
b1010010 C
b1010010 0
b1010010 I
1!
b1 $
b1 7
#825
0!
#830
b1010100 G
b1010011 C
b1010011 0
b1010011 I
1!
b11 $
b11 7
#835
0!
#840
b1010101 G
b1010100 C
b1010100 0
b1010100 I
1!
#845
0!
#850
b1010110 G
b1010101 C
b1010101 0
b1010101 I
1!
b111 $
b111 7
#855
0!
#860
b1010111 G
b1010110 C
b1010110 0
b1010110 I
1!
#865
0!
#870
b1011000 G
b1010111 C
b1010111 0
b1010111 I
1!
b1010110 #
b1010110 6
#875
0!
#880
b1011001 G
b1011000 C
b1011000 0
b1011000 I
1!
b11 $
b11 7
#885
0!
#890
b1011010 G
b1011001 C
b1011001 0
b1011001 I
1!
b0 $
b0 7
#895
0!
#900
b1011011 G
b1011010 C
b1011010 0
b1011010 I
1!
b10 $
b10 7
#905
0!
#910
b1011100 G
b1011011 C
b1011011 0
b1011011 I
1!
b1 $
b1 7
#915
0!
#920
b1011101 G
b1011100 C
b1011100 0
b1011100 I
1!
b11 $
b11 7
#925
0!
#930
b1011110 G
b1011101 C
b1011101 0
b1011101 I
1!
b0 $
b0 7
#935
0!
#940
b1011111 G
b1011110 C
b1011110 0
b1011110 I
1!
b10 $
b10 7
#945
0!
#950
b1100000 G
b1011111 C
b1011111 0
b1011111 I
1!
b1 $
b1 7
#955
0!
#960
b1100001 G
b1100000 C
b1100000 0
b1100000 I
1!
b11 $
b11 7
#965
0!
#970
b1100010 G
b1100001 C
b1100001 0
b1100001 I
1!
b0 $
b0 7
#975
0!
#980
b1100011 G
b1100010 C
b1100010 0
b1100010 I
1!
b10 $
b10 7
#985
0!
#990
b1100100 G
b1100011 C
b1100011 0
b1100011 I
1!
b1 $
b1 7
#995
0!
#1000
b1100101 G
b1100100 C
b1100100 0
b1100100 I
1!
b11 $
b11 7
#1005
0!
#1010
b1100110 G
b1100101 C
b1100101 0
b1100101 I
1!
b1 $
b1 7
#1015
0!
#1020
b1100111 G
b1100110 C
b1100110 0
b1100110 I
1!
b11 $
b11 7
#1025
0!
#1030
b1101000 G
b1100111 C
b1100111 0
b1100111 I
1!
b0 $
b0 7
#1035
0!
#1040
b1101001 G
b1101000 C
b1101000 0
b1101000 I
1!
b10 $
b10 7
#1045
0!
#1050
b1101010 G
b1101001 C
b1101001 0
b1101001 I
1!
b11 $
b11 7
#1055
0!
#1060
b1101011 G
b1101010 C
b1101010 0
b1101010 I
1!
b111 $
b111 7
#1065
0!
#1070
b1101100 G
b1101011 C
b1101011 0
b1101011 I
1!
#1075
0!
#1080
b1101101 G
b1101100 C
b1101100 0
b1101100 I
1!
b1101011 #
b1101011 6
#1085
0!
#1090
b1101110 G
b1101101 C
b1101101 0
b1101101 I
1!
b11 $
b11 7
#1095
0!
#1100
b1101111 G
b1101110 C
b1101110 0
b1101110 I
1!
b0 $
b0 7
#1105
0!
#1110
b1110000 G
b1101111 C
b1101111 0
b1101111 I
1!
b10 $
b10 7
#1115
0!
#1120
b1110001 G
b1110000 C
b1110000 0
b1110000 I
1!
b1 $
b1 7
#1125
0!
#1130
b1110010 G
b1110001 C
b1110001 0
b1110001 I
1!
b11 $
b11 7
#1135
0!
#1140
b1110011 G
b1110010 C
b1110010 0
b1110010 I
1!
b1 $
b1 7
#1145
0!
#1150
b1110100 G
b1110011 C
b1110011 0
b1110011 I
1!
b11 $
b11 7
#1155
0!
#1160
b1110101 G
b1110100 C
b1110100 0
b1110100 I
1!
b0 $
b0 7
#1165
0!
#1170
b1110110 G
b1110101 C
b1110101 0
b1110101 I
1!
b10 $
b10 7
#1175
0!
#1180
b1110111 G
b1110110 C
b1110110 0
b1110110 I
1!
b1 $
b1 7
#1185
0!
#1190
b1111000 G
b1110111 C
b1110111 0
b1110111 I
1!
b11 $
b11 7
#1195
0!
#1200
b1111001 G
b1111000 C
b1111000 0
b1111000 I
1!
b0 $
b0 7
#1205
0!
#1210
b1111010 G
b1111001 C
b1111001 0
b1111001 I
1!
b10 $
b10 7
#1215
0!
#1220
b1111011 G
b1111010 C
b1111010 0
b1111010 I
1!
b1 $
b1 7
#1225
0!
#1230
b1111100 G
b1111011 C
b1111011 0
b1111011 I
1!
b11 $
b11 7
#1235
0!
#1240
b1111101 G
b1111100 C
b1111100 0
b1111100 I
1!
b1 $
b1 7
#1245
0!
#1250
b1111110 G
b1111101 C
b1111101 0
b1111101 I
1!
b11 $
b11 7
#1255
0!
#1260
b1111111 G
b1111110 C
b1111110 0
b1111110 I
1!
#1265
0!
#1270
b10000000 G
b1111111 C
b1111111 0
b1111111 I
1!
b111 $
b111 7
#1275
0!
#1280
b10000001 G
b10000000 C
b10000000 0
b10000000 I
1!
#1285
0!
#1290
b10000010 G
b10000001 C
b10000001 0
b10000001 I
1!
b10000000 #
b10000000 6
#1295
0!
#1300
b10000011 G
b10000010 C
b10000010 0
b10000010 I
1!
b11 $
b11 7
#1305
0!
#1310
b10000100 G
b10000011 C
b10000011 0
b10000011 I
1!
b1 $
b1 7
#1315
0!
#1320
b10000101 G
b10000100 C
b10000100 0
b10000100 I
1!
b11 $
b11 7
#1325
0!
#1330
b10000110 G
b10000101 C
b10000101 0
b10000101 I
1!
b0 $
b0 7
#1335
0!
#1340
b10000111 G
b10000110 C
b10000110 0
b10000110 I
1!
b10 $
b10 7
#1345
0!
#1350
b10001000 G
b10000111 C
b10000111 0
b10000111 I
1!
b0 $
b0 7
#1355
0!
#1360
b10001001 G
b10001000 C
b10001000 0
b10001000 I
1!
b10 $
b10 7
#1365
0!
#1370
b10001010 G
b10001001 C
b10001001 0
b10001001 I
1!
b0 $
b0 7
#1375
0!
#1380
b10001011 G
b10001010 C
b10001010 0
b10001010 I
1!
b10 $
b10 7
#1385
0!
#1390
b10001100 G
b10001011 C
b10001011 0
b10001011 I
1!
b0 $
b0 7
#1395
0!
#1400
b10001101 G
b10001100 C
b10001100 0
b10001100 I
1!
b10 $
b10 7
#1405
0!
#1410
b10001110 G
b10001101 C
b10001101 0
b10001101 I
1!
b0 $
b0 7
#1415
0!
#1420
b10001111 G
b10001110 C
b10001110 0
b10001110 I
1!
b10 $
b10 7
#1425
0!
#1430
b10010000 G
b10001111 C
b10001111 0
b10001111 I
1!
b0 $
b0 7
#1435
0!
#1440
b10010001 G
b10010000 C
b10010000 0
b10010000 I
1!
b10 $
b10 7
#1445
0!
#1450
b10010010 G
b10010001 C
b10010001 0
b10010001 I
1!
b0 $
b0 7
#1455
0!
#1460
b10010011 G
b10010010 C
b10010010 0
b10010010 I
1!
b10 $
b10 7
#1465
0!
#1470
b10010100 G
b10010011 C
b10010011 0
b10010011 I
1!
b11 $
b11 7
#1475
0!
#1480
b10010101 G
b10010100 C
b10010100 0
b10010100 I
1!
b111 $
b111 7
#1485
0!
#1490
b10010110 G
b10010101 C
b10010101 0
b10010101 I
1!
#1495
0!
#1500
b10010111 G
b10010110 C
b10010110 0
b10010110 I
1!
b10010101 #
b10010101 6
#1505
0!
#1510
b10011000 G
b10010111 C
b10010111 0
b10010111 I
1!
b11 $
b11 7
#1515
0!
#1520
b10011001 G
b10011000 C
b10011000 0
b10011000 I
1!
b1 $
b1 7
#1525
0!
#1530
b10011010 G
b10011001 C
b10011001 0
b10011001 I
1!
b11 $
b11 7
#1535
0!
#1540
b10011011 G
b10011010 C
b10011010 0
b10011010 I
1!
b0 $
b0 7
#1545
0!
#1550
b10011100 G
b10011011 C
b10011011 0
b10011011 I
1!
b10 $
b10 7
#1555
0!
#1560
b10011101 G
b10011100 C
b10011100 0
b10011100 I
1!
b0 $
b0 7
#1565
0!
#1570
b10011110 G
b10011101 C
b10011101 0
b10011101 I
1!
b10 $
b10 7
#1575
0!
#1580
b10011111 G
b10011110 C
b10011110 0
b10011110 I
1!
b1 $
b1 7
#1585
0!
#1590
b10100000 G
b10011111 C
b10011111 0
b10011111 I
1!
b11 $
b11 7
#1595
0!
#1600
b10100001 G
b10100000 C
b10100000 0
b10100000 I
1!
b0 $
b0 7
#1605
0!
#1610
b10100010 G
b10100001 C
b10100001 0
b10100001 I
1!
b10 $
b10 7
#1615
0!
#1620
b10100011 G
b10100010 C
b10100010 0
b10100010 I
1!
b1 $
b1 7
#1625
0!
#1630
b10100100 G
b10100011 C
b10100011 0
b10100011 I
1!
b11 $
b11 7
#1635
0!
#1640
b10100101 G
b10100100 C
b10100100 0
b10100100 I
1!
b0 $
b0 7
#1645
0!
#1650
b10100110 G
b10100101 C
b10100101 0
b10100101 I
1!
b10 $
b10 7
#1655
0!
#1660
b10100111 G
b10100110 C
b10100110 0
b10100110 I
1!
b1 $
b1 7
#1665
0!
#1670
b10101000 G
b10100111 C
b10100111 0
b10100111 I
1!
b11 $
b11 7
#1675
0!
#1680
b10101001 G
b10101000 C
b10101000 0
b10101000 I
1!
#1685
0!
#1690
b10101010 G
b10101001 C
b10101001 0
b10101001 I
1!
b111 $
b111 7
#1695
0!
#1700
b10101011 G
b10101010 C
b10101010 0
b10101010 I
1!
#1705
0!
#1710
b10101100 G
b10101011 C
b10101011 0
b10101011 I
1!
b10101010 #
b10101010 6
#1715
0!
#1720
b10101101 G
b10101100 C
b10101100 0
b10101100 I
1!
b11 $
b11 7
#1725
0!
#1730
b10101110 G
b10101101 C
b10101101 0
b10101101 I
1!
b1 $
b1 7
#1735
0!
#1740
b10101111 G
b10101110 C
b10101110 0
b10101110 I
1!
b11 $
b11 7
#1745
0!
#1750
b10110000 G
b10101111 C
b10101111 0
b10101111 I
1!
b0 $
b0 7
#1755
0!
#1760
b10110001 G
b10110000 C
b10110000 0
b10110000 I
1!
b10 $
b10 7
#1765
0!
#1770
b10110010 G
b10110001 C
b10110001 0
b10110001 I
1!
b1 $
b1 7
#1775
0!
#1780
b10110011 G
b10110010 C
b10110010 0
b10110010 I
1!
b11 $
b11 7
#1785
0!
#1790
b10110100 G
b10110011 C
b10110011 0
b10110011 I
1!
b0 $
b0 7
#1795
0!
#1800
b10110101 G
b10110100 C
b10110100 0
b10110100 I
1!
b10 $
b10 7
#1805
0!
#1810
b10110110 G
b10110101 C
b10110101 0
b10110101 I
1!
b1 $
b1 7
#1815
0!
#1820
b10110111 G
b10110110 C
b10110110 0
b10110110 I
1!
b11 $
b11 7
#1825
0!
#1830
b10111000 G
b10110111 C
b10110111 0
b10110111 I
1!
b0 $
b0 7
#1835
0!
#1840
b10111001 G
b10111000 C
b10111000 0
b10111000 I
1!
b10 $
b10 7
#1845
0!
#1850
b10111010 G
b10111001 C
b10111001 0
b10111001 I
1!
b1 $
b1 7
#1855
0!
#1860
b10111011 G
b10111010 C
b10111010 0
b10111010 I
1!
b11 $
b11 7
#1865
0!
#1870
b10111100 G
b10111011 C
b10111011 0
b10111011 I
1!
b0 $
b0 7
#1875
0!
#1880
b10111101 G
b10111100 C
b10111100 0
b10111100 I
1!
b10 $
b10 7
#1885
0!
#1890
b10111110 G
b10111101 C
b10111101 0
b10111101 I
1!
b11 $
b11 7
#1895
0!
#1900
b10111111 G
b10111110 C
b10111110 0
b10111110 I
1!
b111 $
b111 7
#1905
0!
#1910
b11000000 G
b10111111 C
b10111111 0
b10111111 I
1!
#1915
0!
#1920
b11000001 G
b11000000 C
b11000000 0
b11000000 I
1!
b10111111 #
b10111111 6
#1925
0!
#1930
b11000010 G
b11000001 C
b11000001 0
b11000001 I
1!
b11 $
b11 7
#1935
0!
#1940
b11000011 G
b11000010 C
b11000010 0
b11000010 I
1!
