2.DecCounter/mydump3.vcd
$date
	Wed Mar 29 13:12:43 2023
$end
$version
	Icarus Verilog
$end
$timescale
	1ns
$end
$scope module testbench $end
$var reg 1 ! CLK $end
$var reg 1 " RST_N $end
$var reg 32 # \counter$count [31:0] $end
$var reg 1 $ \counter$overflow $end
$scope module U1 $end
$var wire 1 ! CLK $end
$var wire 1 " RST_N $end
$var wire 32 % \counter$count [31:0] $end
$var wire 1 $ \counter$overflow $end
$upscope $end
$upscope $end
$enddefinitions $end
#0
$dumpvars
b0 %
0$
b0 #
0"
x!
$end
#1
1!
#2
1"
#5
0!
#10
1!
b1 #
b1 %
#15
0!
#20
1!
b10 #
b10 %
#25
0!
#30
1!
b11 #
b11 %
#35
0!
#40
1!
b100 #
b100 %
#45
0!
#50
1!
b101 #
b101 %
#55
0!
#60
1!
b110 #
b110 %
#65
0!
#70
1!
b111 #
b111 %
#75
0!
#80
1!
b1000 #
b1000 %
#85
0!
#90
1!
b1001 #
b1001 %
#95
0!
#100
1!
b1010 #
b1010 %
#105
0!
#110
1!
b1011 #
b1011 %
#115
0!
#120
1!
b1100 #
b1100 %
#125
0!
#130
1!
b1101 #
b1101 %
#135
0!
#140
1!
b1110 #
b1110 %
#145
0!
#150
1!
b1111 #
b1111 %
#155
0!
#160
1!
b10000 #
b10000 %
#165
0!
#170
1!
b10001 #
b10001 %
#175
0!
#180
1!
b10010 #
b10010 %
#185
0!
#190
1!
b10011 #
b10011 %
#195
0!
#200
1!
b10100 #
b10100 %
#205
0!
#210
1!
b10101 #
b10101 %
#215
0!
#220
1!
b10110 #
b10110 %
#225
0!
#230
1!
b10111 #
b10111 %
#235
0!
#240
1!
b11000 #
b11000 %
#245
0!
#250
1!
b11001 #
b11001 %
#255
0!
#260
1!
b11010 #
b11010 %
#265
0!
#270
1!
b11011 #
b11011 %
#275
0!
#280
1!
b11100 #
b11100 %
#285
0!
#290
1!
b11101 #
b11101 %
#295
0!
#300
1!
b11110 #
b11110 %
#305
0!
#310
1!
b11111 #
b11111 %
#315
0!
#320
1!
b100000 #
b100000 %
#325
0!
#330
1!
b100001 #
b100001 %
#335
0!
#340
1!
b100010 #
b100010 %
#345
0!
#350
1!
b100011 #
b100011 %
#355
0!
#360
1!
b100100 #
b100100 %
#365
0!
#370
1!
b100101 #
b100101 %
#375
0!
#380
1!
b100110 #
b100110 %
#385
0!
#390
1!
b100111 #
b100111 %
#395
0!
#400
1!
b101000 #
b101000 %
#405
0!
#410
1!
b101001 #
b101001 %
#415
0!
#420
1!
b101010 #
b101010 %
#425
0!
#430
1!
b101011 #
b101011 %
#435
0!
#440
1!
b101100 #
b101100 %
#445
0!
#450
1!
b101101 #
b101101 %
#455
0!
#460
1!
b101110 #
b101110 %
#465
0!
#470
1!
b101111 #
b101111 %
#475
0!
#480
1!
b110000 #
b110000 %
#485
0!
#490
1!
b110001 #
b110001 %
#495
0!
#500
1!
b110010 #
b110010 %
#505
0!
#510
1!
b110011 #
b110011 %
#515
0!
#520
1!
b110100 #
b110100 %
#525
0!
#530
1!
b110101 #
b110101 %
#535
0!
#540
1!
b110110 #
b110110 %
#545
0!
#550
1!
b110111 #
b110111 %
#555
0!
#560
1!
b111000 #
b111000 %
#565
0!
#570
1!
b111001 #
b111001 %
#575
0!
#580
1!
b111010 #
b111010 %
#585
0!
#590
1!
b111011 #
b111011 %
#595
0!
#600
1!
b111100 #
b111100 %
#605
0!
#610
1!
b111101 #
b111101 %
#615
0!
#620
1!
b111110 #
b111110 %
#625
0!
#630
1!
b111111 #
b111111 %
#635
0!
#640
1!
b1000000 #
b1000000 %
#645
0!
#650
1!
b1000001 #
b1000001 %
#655
0!
#660
1!
b1000010 #
b1000010 %
#665
0!
#670
1!
b1000011 #
b1000011 %
#675
0!
#680
1!
b1000100 #
b1000100 %
#685
0!
#690
1!
b1000101 #
b1000101 %
#695
0!
#700
1!
b1000110 #
b1000110 %
#705
0!
#710
1!
b1000111 #
b1000111 %
#715
0!
#720
1!
b1001000 #
b1001000 %
#725
0!
#730
1!
b1001001 #
b1001001 %
#735
0!
#740
1!
b1001010 #
b1001010 %
#745
0!
#750
1!
b1001011 #
b1001011 %
#755
0!
#760
1!
b1001100 #
b1001100 %
#765
0!
#770
1!
b1001101 #
b1001101 %
#775
0!
#780
1!
b1001110 #
b1001110 %
#785
0!
#790
1!
b1001111 #
b1001111 %
#795
0!
#800
1!
b1010000 #
b1010000 %
#805
0!
#810
1!
b1010001 #
b1010001 %
#815
0!
#820
1!
b1010010 #
b1010010 %
#825
0!
#830
1!
b1010011 #
b1010011 %
#835
0!
#840
1!
b1010100 #
b1010100 %
#845
0!
#850
1!
b1010101 #
b1010101 %
#855
0!
#860
1!
b1010110 #
b1010110 %
#865
0!
#870
1!
b1010111 #
b1010111 %
#875
0!
#880
1!
b1011000 #
b1011000 %
#885
0!
#890
1!
b1011001 #
b1011001 %
#895
0!
#900
1!
b1011010 #
b1011010 %
#905
0!
#910
1!
b1011011 #
b1011011 %
#915
0!
#920
1!
b1011100 #
b1011100 %
#925
0!
#930
1!
b1011101 #
b1011101 %
#935
0!
#940
1!
b1011110 #
b1011110 %
#945
0!
#950
1!
b1011111 #
b1011111 %
#955
0!
#960
1!
b1100000 #
b1100000 %
#965
0!
#970
1!
b1100001 #
b1100001 %
#975
0!
#980
1!
b1100010 #
b1100010 %
#985
0!
#990
1!
b1100011 #
b1100011 %
#995
0!
#1000
1!
b1100100 #
b1100100 %
#1005
0!
#1010
1!
b1100101 #
b1100101 %
#1015
0!
#1020
1!
b1100110 #
b1100110 %
#1025
0!
#1030
1!
b1100111 #
b1100111 %
#1035
0!
#1040
1!
b1101000 #
b1101000 %
#1045
0!
#1050
1!
b1101001 #
b1101001 %
#1055
0!
#1060
1!
b1101010 #
b1101010 %
#1065
0!
#1070
1!
b1101011 #
b1101011 %
#1075
0!
#1080
1!
b1101100 #
b1101100 %
#1085
0!
#1090
1!
b1101101 #
b1101101 %
#1095
0!
#1100
1!
b1101110 #
b1101110 %
#1105
0!
#1110
1!
b1101111 #
b1101111 %
#1115
0!
#1120
1!
b1110000 #
b1110000 %
#1125
0!
#1130
1!
b1110001 #
b1110001 %
#1135
0!
#1140
1!
b1110010 #
b1110010 %
#1145
0!
#1150
1!
b1110011 #
b1110011 %
#1155
0!
#1160
1!
b1110100 #
b1110100 %
#1165
0!
#1170
1!
b1110101 #
b1110101 %
#1175
0!
#1180
1!
b1110110 #
b1110110 %
#1185
0!
#1190
1!
b1110111 #
b1110111 %
#1195
0!
#1200
1!
b1111000 #
b1111000 %
#1205
0!
#1210
1!
b1111001 #
b1111001 %
#1215
0!
#1220
1!
b1111010 #
b1111010 %
#1225
0!
#1230
1!
b1111011 #
b1111011 %
#1235
0!
#1240
1!
b1111100 #
b1111100 %
#1245
0!
#1250
1!
b1111101 #
b1111101 %
#1255
0!
#1260
1!
b1111110 #
b1111110 %
#1265
0!
#1270
1!
b1111111 #
b1111111 %
#1275
0!
#1280
1!
b10000000 #
b10000000 %
#1285
0!
#1290
1!
b10000001 #
b10000001 %
#1295
0!
#1300
1!
b10000010 #
b10000010 %
#1305
0!
#1310
1!
b10000011 #
b10000011 %
#1315
0!
#1320
1!
b10000100 #
b10000100 %
#1325
0!
#1330
1!
b10000101 #
b10000101 %
#1335
0!
#1340
1!
b10000110 #
b10000110 %
#1345
0!
#1350
1!
b10000111 #
b10000111 %
#1355
0!
#1360
1!
b10001000 #
b10001000 %
#1365
0!
#1370
1!
b10001001 #
b10001001 %
#1375
0!
#1380
1!
b10001010 #
b10001010 %
#1385
0!
#1390
1!
b10001011 #
b10001011 %
#1395
0!
#1400
1!
b10001100 #
b10001100 %
#1405
0!
#1410
1!
b10001101 #
b10001101 %
#1415
0!
#1420
1!
b10001110 #
b10001110 %
#1425
0!
#1430
1!
b10001111 #
b10001111 %
#1435
0!
#1440
1!
b10010000 #
b10010000 %
#1445
0!
#1450
1!
b10010001 #
b10010001 %
#1455
0!
#1460
1!
b10010010 #
b10010010 %
#1465
0!
#1470
1!
b10010011 #
b10010011 %
#1475
0!
#1480
1!
b10010100 #
b10010100 %
#1485
0!
#1490
1!
b10010101 #
b10010101 %
#1495
0!
#1500
1!
b10010110 #
b10010110 %
#1505
0!
#1510
1!
b10010111 #
b10010111 %
#1515
0!
#1520
1!
b10011000 #
b10011000 %
#1525
0!
#1530
1!
b10011001 #
b10011001 %
#1535
0!
#1540
1!
b10011010 #
b10011010 %
#1545
0!
#1550
1!
b10011011 #
b10011011 %
#1555
0!
#1560
1!
b10011100 #
b10011100 %
#1565
0!
#1570
1!
b10011101 #
b10011101 %
#1575
0!
#1580
1!
b10011110 #
b10011110 %
#1585
0!
#1590
1!
b10011111 #
b10011111 %
#1595
0!
#1600
1!
b10100000 #
b10100000 %
#1605
0!
#1610
1!
b10100001 #
b10100001 %
#1615
0!
#1620
1!
b10100010 #
b10100010 %
#1625
0!
#1630
1!
b10100011 #
b10100011 %
#1635
0!
#1640
1!
b10100100 #
b10100100 %
#1645
0!
#1650
1!
b10100101 #
b10100101 %
#1655
0!
#1660
1!
b10100110 #
b10100110 %
#1665
0!
#1670
1!
b10100111 #
b10100111 %
#1675
0!
#1680
1!
b10101000 #
b10101000 %
#1685
0!
#1690
1!
b10101001 #
b10101001 %
#1695
0!
#1700
1!
b10101010 #
b10101010 %
#1705
0!
#1710
1!
b10101011 #
b10101011 %
#1715
0!
#1720
1!
b10101100 #
b10101100 %
#1725
0!
#1730
1!
b10101101 #
b10101101 %
#1735
0!
#1740
1!
b10101110 #
b10101110 %
#1745
0!
#1750
1!
b10101111 #
b10101111 %
#1755
0!
#1760
1!
b10110000 #
b10110000 %
#1765
0!
#1770
1!
b10110001 #
b10110001 %
#1775
0!
#1780
1!
b10110010 #
b10110010 %
#1785
0!
#1790
1!
b10110011 #
b10110011 %
#1795
0!
#1800
1!
b10110100 #
b10110100 %
#1805
0!
#1810
1!
b10110101 #
b10110101 %
#1815
0!
#1820
1!
b10110110 #
b10110110 %
#1825
0!
#1830
1!
b10110111 #
b10110111 %
#1835
0!
#1840
1!
b10111000 #
b10111000 %
#1845
0!
#1850
1!
b10111001 #
b10111001 %
#1855
0!
#1860
1!
b10111010 #
b10111010 %
#1865
0!
#1870
1!
b10111011 #
b10111011 %
#1875
0!
#1880
1!
b10111100 #
b10111100 %
#1885
0!
#1890
1!
b10111101 #
b10111101 %
#1895
0!
#1900
1!
b10111110 #
b10111110 %
#1905
0!
#1910
1!
b10111111 #
b10111111 %
#1915
0!
#1920
1!
b11000000 #
b11000000 %
#1925
0!
#1930
1!
b11000001 #
b11000001 %
