2.DecCounter/myfile.vcd
$date
	Tue Mar 28 17:41:05 2023
$end
$version
	Icarus Verilog
$end
$timescale
	1ns
$end
$scope module testbench $end
$var reg 1 ! CLK $end
$var reg 1 " EN_write $end
$var reg 1 # RST_N $end
$var reg 8 $ write_data [7:0] $end
$scope module U1 $end
$var wire 1 ! CLK $end
$var wire 1 " EN_write $end
$var wire 1 % RDY_hook_write_data $end
$var wire 1 & RDY_spi $end
$var wire 1 ' RDY_write $end
$var wire 1 # RST_N $end
$var wire 1 ( WILL_FIRE_RL_spiFsm_action_l30c13 $end
$var wire 1 ) WILL_FIRE_RL_spiFsm_action_l32c13 $end
$var wire 1 * WILL_FIRE_RL_spiFsm_action_l41c15 $end
$var wire 1 + WILL_FIRE_RL_spiFsm_fsm_start $end
$var wire 1 , WILL_FIRE_RL_spiFsm_idle_l29c7 $end
$var wire 1 - \cnt$EN $end
$var wire 8 . \hook_reg_hook_write_data$D_IN [7:0] $end
$var wire 1 / \hook_reg_hook_write_data$EN $end
$var wire 8 0 hook_write_data [7:0] $end
$var wire 1 1 \mosi$D_IN $end
$var wire 1 2 \mosi$EN $end
$var wire 1 3 \sck$EN $end
$var wire 1 4 spiFsm_abort_whas_AND_spiFsm_abort_wget_OR_spi_ETC___d60 $end
$var wire 1 5 \spiFsm_start_reg$EN $end
$var wire 1 6 \spiFsm_start_reg_1$D_IN $end
$var wire 1 7 \spiFsm_start_reg_1$EN $end
$var wire 1 8 \spiFsm_start_wire$whas $end
$var wire 1 9 \spiFsm_state_can_overlap$D_IN $end
$var wire 1 : \spiFsm_state_can_overlap$EN $end
$var wire 1 ; \spiFsm_state_fired$D_IN $end
$var wire 1 < \spiFsm_state_fired$EN $end
$var wire 1 = \spiFsm_state_mkFSMstate$EN $end
$var wire 1 > \spiFsm_state_set_pw$whas $end
$var wire 1 ? \ss$EN $end
$var wire 8 @ \wdata$D_IN [7:0] $end
$var wire 1 A \wdata$EN $end
$var wire 8 B write_data [7:0] $end
$var wire 1 C \ss$D_IN $end
$var wire 1 D \spiFsm_start_reg$D_IN $end
$var wire 3 E spi [2:0] $end
$var wire 1 F \sck$D_IN $end
$var wire 32 G \cnt$D_IN [31:0] $end
$var wire 1 H \MUX_mosi$write_1__VAL_1 $end
$var wire 32 I \MUX_cnt$write_1__VAL_1 [31:0] $end
$var reg 32 J cnt [31:0] $end
$var reg 8 K hook_reg_hook_write_data [7:0] $end
$var reg 1 L mosi $end
$var reg 1 M sck $end
$var reg 1 N spiFsm_start_reg $end
$var reg 1 O spiFsm_start_reg_1 $end
$var reg 1 P spiFsm_state_can_overlap $end
$var reg 1 Q spiFsm_state_fired $end
$var reg 4 R spiFsm_state_mkFSMstate [3:0] $end
$var reg 4 S \spiFsm_state_mkFSMstate$D_IN [3:0] $end
$var reg 1 T ss $end
$var reg 8 U wdata [7:0] $end
$upscope $end
$upscope $end
$enddefinitions $end
#0
$dumpvars
b10101010 U
0T
b1010 S
b1010 R
0Q
0P
0O
0N
0M
0L
b10101010 K
b10101010101010101010101010101010 J
b10101010101010101010101010101001 I
0H
b111 G
1F
b0 E
1D
1C
b10101010 B
xA
b10101010 @
0?
0>
0=
1<
0;
1:
09
08
17
06
x5
04
03
02
11
b10101010 0
x/
b10101010 .
0-
0,
0+
0*
0)
0(
0'
1&
1%
b10101010 $
0#
x"
x!
$end
#1
1'
14
19
b0 U
1T
b0 R
1P
1M
b111 E
1L
b0 0
b0 K
b110 I
b111 J
1!
#2
1#
#5
0!
#10
1=
1;
1>
1?
b1 S
0C
1(
16
18
0'
0D
1+
1N
15
1!
b0 .
b0 @
b0 $
b0 B
1/
1A
1"
#15
0!
#20
12
13
01
1;
1>
0?
b10 S
0F
1)
1C
0(
04
06
08
05
0'
1D
0+
b11 E
0T
b1 R
1Q
1O
0N
1!
0/
0A
0"
#25
0!
#30
02
b11 S
11
1F
0)
b110 G
1-
b10 R
0O
0M
b0 E
0L
1!
b10 .
b10 @
b10 $
b10 B
#35
0!
#40
1=
12
01
1;
1>
0F
1)
b10 S
0-
13
b111 G
b11 R
b10 E
1M
b101 I
b110 J
1!
#45
0!
#50
02
b11 S
11
1F
0)
b101 G
1-
b10 R
b0 E
0M
1!
#55
0!
#60
1=
12
01
1;
1>
0F
1)
b10 S
0-
13
b111 G
b11 R
b10 E
1M
b100 I
b101 J
1!
#65
0!
#70
02
b11 S
11
1F
0)
b100 G
1-
b10 R
b0 E
0M
1!
#75
0!
#80
1=
12
01
1;
1>
0F
1)
b10 S
0-
13
b111 G
b11 R
b10 E
1M
b11 I
b100 J
1!
#85
0!
#90
02
b11 S
11
1F
0)
b11 G
1-
b10 R
b0 E
0M
1!
#95
0!
#100
1=
12
01
1;
1>
0F
1)
b10 S
0-
13
b111 G
b11 R
b10 E
1M
b10 I
b11 J
1!
#105
0!
#110
02
b11 S
11
1F
0)
b10 G
1-
b10 R
b0 E
0M
1!
#115
0!
#120
1=
12
01
1;
1>
0F
1)
b10 S
0-
13
b111 G
b11 R
b10 E
1M
b1 I
b10 J
1!
#125
0!
#130
02
b11 S
11
1F
0)
b1 G
1-
b10 R
b0 E
0M
1!
#135
0!
#140
1=
12
01
1;
1>
0F
1)
b10 S
0-
13
b111 G
b11 R
b10 E
1M
b0 I
b1 J
1!
#145
0!
#150
02
b11 S
11
1F
0)
b0 G
1-
b10 R
b0 E
0M
1!
#155
0!
#160
1=
12
01
1;
1>
0F
1)
b10 S
0-
13
b111 G
b11 R
b10 E
1M
b11111111111111111111111111111111 I
b0 J
1!
#165
0!
#170
02
b11 S
11
1F
0)
b11111111111111111111111111111111 G
1-
b10 R
b0 E
0M
1!
#175
0!
#180
1;
1>
12
1*
b100 S
0-
03
b111 G
b11 R
b10 E
1M
b11111111111111111111111111111110 I
b11111111111111111111111111111111 J
1!
#185
0!
#190
02
b101 S
0*
1?
b100 R
b11 E
1L
1!
#195
0!
#200
1;
1>
b110 S
1-
0?
b111 E
1T
b101 R
1!
#205
0!
#210
1;
1>
1'
14
b0 S
1,
0-
1=
b110 R
b110 I
b111 J
1!
#215
0!
#220
1=
1?
0C
1(
16
18
b1 S
0,
0'
0D
1+
b10 U
b0 R
1N
b10 0
b10 K
15
1!
1/
1A
1"
#225
0!
#230
12
13
01
1;
1>
0?
b10 S
0F
1)
1C
0(
04
06
08
05
0'
1D
0+
b11 E
0T
b1 R
1O
0N
1!
0/
0A
0"
#235
0!
#240
02
b11 S
11
1F
0)
b110 G
1-
b10 R
0O
0M
b0 E
0L
1!
b10111 .
b10111 @
b10111 $
b10111 B
#245
0!
#250
1=
12
01
1;
1>
0F
1)
b10 S
0-
13
b111 G
b11 R
b10 E
1M
b101 I
b110 J
1!
#255
0!
#260
02
b11 S
11
1F
0)
b101 G
1-
b10 R
b0 E
0M
1!
#265
0!
#270
1=
12
01
1;
1>
0F
1)
b10 S
0-
13
b111 G
b11 R
b10 E
1M
b100 I
b101 J
1!
#275
0!
#280
02
b11 S
11
1F
0)
b100 G
1-
b10 R
b0 E
0M
1!
#285
0!
#290
1=
12
01
1;
1>
0F
1)
b10 S
0-
13
b111 G
b11 R
b10 E
1M
b11 I
b100 J
1!
#295
0!
#300
02
b11 S
11
1F
0)
b11 G
1-
b10 R
b0 E
0M
1!
#305
0!
#310
1=
12
01
1;
1>
0F
1)
b10 S
0-
13
b111 G
b11 R
b10 E
1M
b10 I
b11 J
1!
#315
0!
#320
02
b11 S
11
1F
0)
b10 G
1-
b10 R
b0 E
0M
1!
#325
0!
#330
1=
12
01
1;
1>
0F
1)
b10 S
0-
13
b111 G
b11 R
b10 E
1M
b1 I
b10 J
1!
#335
0!
#340
02
b11 S
11
1F
0)
b1 G
1-
b10 R
b0 E
0M
1!
#345
0!
#350
1=
12
1;
1>
0F
1)
b10 S
0-
13
b111 G
1H
b11 R
b10 E
1M
b0 I
b1 J
1!
#355
0!
#360
02
b11 S
1F
0)
b0 G
1-
b10 R
0M
b1 E
1L
1!
#365
0!
#370
1=
12
01
1;
1>
0F
1)
b10 S
0-
13
b111 G
0H
b11 R
b11 E
1M
b11111111111111111111111111111111 I
b0 J
1!
#375
0!
#380
02
b11 S
11
1F
0)
b11111111111111111111111111111111 G
1-
b10 R
0M
b0 E
0L
1!
#385
0!
#390
1;
1>
12
1*
b100 S
0-
03
b111 G
b11 R
b10 E
1M
b11111111111111111111111111111110 I
b11111111111111111111111111111111 J
1!
#395
0!
#400
02
b101 S
0*
1?
b100 R
b11 E
1L
1!
#405
0!
#410
1;
1>
b110 S
1-
0?
b111 E
1T
b101 R
1!
#415
0!
#420
1;
1>
1'
14
b0 S
1,
0-
1=
b110 R
b110 I
b111 J
1!
#425
0!
#430
1=
1?
0C
1(
16
18
b1 S
0,
0'
0D
1+
b10111 U
b0 R
1N
b10111 0
b10111 K
15
1!
1/
1A
1"
#435
0!
#440
12
13
01
1;
1>
0?
b10 S
0F
1)
1C
0(
04
06
08
05
0'
1D
0+
b11 E
0T
b1 R
1O
0N
1!
0/
0A
0"
#445
0!
#450
02
b11 S
11
1F
0)
b110 G
1-
b10 R
0O
0M
b0 E
0L
1!
b101100 .
b101100 @
b101100 $
b101100 B
#455
0!
#460
1=
12
01
1;
1>
0F
1)
b10 S
0-
13
b111 G
b11 R
b10 E
1M
b101 I
b110 J
1!
#465
0!
#470
02
b11 S
11
1F
0)
b101 G
1-
b10 R
b0 E
0M
1!
#475
0!
#480
1=
12
01
1;
1>
0F
1)
b10 S
0-
13
b111 G
b11 R
b10 E
1M
b100 I
b101 J
1!
#485
0!
#490
02
b11 S
11
1F
0)
b100 G
1-
b10 R
b0 E
0M
1!
#495
0!
#500
1=
12
1;
1>
0F
1)
b10 S
0-
13
b111 G
1H
b11 R
b10 E
1M
b11 I
b100 J
1!
#505
0!
#510
02
b11 S
1F
0)
b11 G
1-
b10 R
0M
b1 E
1L
1!
#515
0!
#520
1=
12
01
1;
1>
0F
1)
b10 S
0-
13
b111 G
0H
b11 R
b11 E
1M
b10 I
b11 J
1!
#525
0!
#530
02
b11 S
11
1F
0)
b10 G
1-
b10 R
0M
b0 E
0L
1!
#535
0!
#540
1=
12
1;
1>
0F
1)
b10 S
0-
13
b111 G
1H
b11 R
b10 E
1M
b1 I
b10 J
1!
#545
0!
#550
02
b11 S
1F
0)
b1 G
1-
b10 R
0M
b1 E
1L
1!
#555
0!
#560
1=
12
1;
1>
0F
1)
b10 S
0-
13
b111 G
b11 R
b11 E
1M
b0 I
b1 J
1!
#565
0!
#570
02
b11 S
1F
0)
b0 G
1-
b10 R
b1 E
0M
1!
#575
0!
#580
1=
12
1;
1>
0F
1)
b10 S
0-
13
b111 G
b11 R
b11 E
1M
b11111111111111111111111111111111 I
b0 J
1!
#585
0!
#590
02
b11 S
1F
0)
b11111111111111111111111111111111 G
1-
b10 R
b1 E
0M
1!
#595
0!
#600
1;
1>
12
1*
b100 S
0-
03
b111 G
0H
b11 R
b11 E
1M
b11111111111111111111111111111110 I
b11111111111111111111111111111111 J
1!
#605
0!
#610
02
b101 S
0*
1?
b100 R
1!
#615
0!
#620
1;
1>
b110 S
1-
0?
b111 E
1T
b101 R
1!
#625
0!
#630
1;
1>
1'
14
b0 S
1,
0-
1=
b110 R
b110 I
b111 J
1!
#635
0!
#640
1=
1?
0C
1(
16
18
b1 S
0,
0'
0D
1+
b101100 U
b0 R
1N
b101100 0
b101100 K
15
1!
1/
1A
1"
#645
0!
#650
12
13
01
1;
1>
0?
b10 S
0F
1)
1C
0(
04
06
08
05
0'
1D
0+
b11 E
0T
b1 R
1O
0N
1!
0/
0A
0"
#655
0!
#660
02
b11 S
11
1F
0)
b110 G
1-
b10 R
0O
0M
b0 E
0L
1!
b1000001 .
b1000001 @
b1000001 $
b1000001 B
#665
0!
#670
1=
12
01
1;
1>
0F
1)
b10 S
0-
13
b111 G
b11 R
b10 E
1M
b101 I
b110 J
1!
#675
0!
#680
02
b11 S
11
1F
0)
b101 G
1-
b10 R
b0 E
0M
1!
#685
0!
#690
1=
12
1;
1>
0F
1)
b10 S
0-
13
b111 G
1H
b11 R
b10 E
1M
b100 I
b101 J
1!
#695
0!
#700
02
b11 S
1F
0)
b100 G
1-
b10 R
0M
b1 E
1L
1!
#705
0!
#710
1=
12
01
1;
1>
0F
1)
b10 S
0-
13
b111 G
0H
b11 R
b11 E
1M
b11 I
b100 J
1!
#715
0!
#720
02
b11 S
11
1F
0)
b11 G
1-
b10 R
0M
b0 E
0L
1!
#725
0!
#730
1=
12
1;
1>
0F
1)
b10 S
0-
13
b111 G
1H
b11 R
b10 E
1M
b10 I
b11 J
1!
#735
0!
#740
02
b11 S
1F
0)
b10 G
1-
b10 R
0M
b1 E
1L
1!
#745
0!
#750
1=
12
1;
1>
0F
1)
b10 S
0-
13
b111 G
b11 R
b11 E
1M
b1 I
b10 J
1!
#755
0!
#760
02
b11 S
1F
0)
b1 G
1-
b10 R
b1 E
0M
1!
#765
0!
#770
1=
12
01
1;
1>
0F
1)
b10 S
0-
13
b111 G
0H
b11 R
b11 E
1M
b0 I
b1 J
1!
#775
0!
#780
02
b11 S
11
1F
0)
b0 G
1-
b10 R
0M
b0 E
0L
1!
#785
0!
#790
1=
12
01
1;
1>
0F
1)
b10 S
0-
13
b111 G
b11 R
b10 E
1M
b11111111111111111111111111111111 I
b0 J
1!
#795
0!
#800
02
b11 S
11
1F
0)
b11111111111111111111111111111111 G
1-
b10 R
b0 E
0M
1!
#805
0!
#810
1;
1>
12
1*
b100 S
0-
03
b111 G
b11 R
b10 E
1M
b11111111111111111111111111111110 I
b11111111111111111111111111111111 J
1!
#815
0!
#820
02
b101 S
0*
1?
b100 R
b11 E
1L
1!
#825
0!
#830
1;
1>
b110 S
1-
0?
b111 E
1T
b101 R
1!
#835
0!
#840
1;
1>
1'
14
b0 S
1,
0-
1=
b110 R
b110 I
b111 J
1!
#845
0!
#850
1=
1?
0C
1(
16
18
b1 S
0,
0'
0D
1+
b1000001 U
b0 R
1N
b1000001 0
b1000001 K
15
1!
1/
1A
1"
#855
0!
#860
12
13
01
1;
1>
0?
b10 S
0F
1)
1C
0(
04
06
08
05
0'
1D
0+
b11 E
0T
b1 R
1O
0N
1!
0/
0A
0"
#865
0!
#870
02
b11 S
11
1F
0)
b110 G
1-
b10 R
0O
0M
b0 E
0L
1!
b1010110 .
b1010110 @
b1010110 $
b1010110 B
#875
0!
#880
1=
12
1;
1>
0F
1)
b10 S
0-
13
b111 G
1H
b11 R
b10 E
1M
b101 I
b110 J
1!
#885
0!
#890
02
b11 S
1F
0)
b101 G
1-
b10 R
0M
b1 E
1L
1!
#895
0!
#900
1=
12
01
1;
1>
0F
1)
b10 S
0-
13
b111 G
0H
b11 R
b11 E
1M
b100 I
b101 J
1!
#905
0!
#910
02
b11 S
11
1F
0)
b100 G
1-
b10 R
0M
b0 E
0L
1!
#915
0!
#920
1=
12
01
1;
1>
0F
1)
b10 S
0-
13
b111 G
b11 R
b10 E
1M
b11 I
b100 J
1!
#925
0!
#930
02
b11 S
11
1F
0)
b11 G
1-
b10 R
b0 E
0M
1!
#935
0!
#940
1=
12
01
1;
1>
0F
1)
b10 S
0-
13
b111 G
b11 R
b10 E
1M
b10 I
b11 J
1!
#945
0!
#950
02
b11 S
11
1F
0)
b10 G
1-
b10 R
b0 E
0M
1!
#955
0!
#960
1=
12
01
1;
1>
0F
1)
b10 S
0-
13
b111 G
b11 R
b10 E
1M
b1 I
b10 J
1!
#965
0!
#970
02
b11 S
11
1F
0)
b1 G
1-
b10 R
b0 E
0M
1!
#975
0!
#980
1=
12
01
1;
1>
0F
1)
b10 S
0-
13
b111 G
b11 R
b10 E
1M
b0 I
b1 J
1!
#985
0!
#990
02
b11 S
11
1F
0)
b0 G
1-
b10 R
b0 E
0M
1!
#995
0!
#1000
1=
12
1;
1>
0F
1)
b10 S
0-
13
b111 G
1H
b11 R
b10 E
1M
b11111111111111111111111111111111 I
b0 J
1!
#1005
0!
#1010
02
b11 S
1F
0)
b11111111111111111111111111111111 G
1-
b10 R
0M
b1 E
1L
1!
#1015
0!
#1020
1;
1>
12
1*
b100 S
0-
03
b111 G
0H
b11 R
b11 E
1M
b11111111111111111111111111111110 I
b11111111111111111111111111111111 J
1!
#1025
0!
#1030
02
b101 S
0*
1?
b100 R
1!
#1035
0!
#1040
1;
1>
b110 S
1-
0?
b111 E
1T
b101 R
1!
#1045
0!
#1050
1;
1>
1'
14
b0 S
1,
0-
1=
b110 R
b110 I
b111 J
1!
#1055
0!
#1060
1=
1?
0C
1(
16
18
b1 S
0,
0'
0D
1+
b1010110 U
b0 R
1N
b1010110 0
b1010110 K
15
1!
1/
1A
1"
#1065
0!
#1070
12
13
01
1;
1>
0?
b10 S
0F
1)
1C
0(
04
06
08
05
0'
1D
0+
b11 E
0T
b1 R
1O
0N
1!
0/
0A
0"
#1075
0!
#1080
02
b11 S
11
1F
0)
b110 G
1-
b10 R
0O
0M
b0 E
0L
1!
b1101011 .
b1101011 @
b1101011 $
b1101011 B
#1085
0!
#1090
1=
12
1;
1>
0F
1)
b10 S
0-
13
b111 G
1H
b11 R
b10 E
1M
b101 I
b110 J
1!
#1095
0!
#1100
02
b11 S
1F
0)
b101 G
1-
b10 R
0M
b1 E
1L
1!
#1105
0!
#1110
1=
12
01
1;
1>
0F
1)
b10 S
0-
13
b111 G
0H
b11 R
b11 E
1M
b100 I
b101 J
1!
#1115
0!
#1120
02
b11 S
11
1F
0)
b100 G
1-
b10 R
0M
b0 E
0L
1!
#1125
0!
#1130
1=
12
1;
1>
0F
1)
b10 S
0-
13
b111 G
1H
b11 R
b10 E
1M
b11 I
b100 J
1!
#1135
0!
#1140
02
b11 S
1F
0)
b11 G
1-
b10 R
0M
b1 E
1L
1!
#1145
0!
#1150
1=
12
01
1;
1>
0F
1)
b10 S
0-
13
b111 G
0H
b11 R
b11 E
1M
b10 I
b11 J
1!
#1155
0!
#1160
02
b11 S
11
1F
0)
b10 G
1-
b10 R
0M
b0 E
0L
1!
#1165
0!
#1170
1=
12
1;
1>
0F
1)
b10 S
0-
13
b111 G
1H
b11 R
b10 E
1M
b1 I
b10 J
1!
#1175
0!
#1180
02
b11 S
1F
0)
b1 G
1-
b10 R
0M
b1 E
1L
1!
#1185
0!
#1190
1=
12
1;
1>
0F
1)
b10 S
0-
13
b111 G
b11 R
b11 E
1M
b0 I
b1 J
1!
#1195
0!
#1200
02
b11 S
1F
0)
b0 G
1-
b10 R
b1 E
0M
1!
#1205
0!
#1210
1=
12
01
1;
1>
0F
1)
b10 S
0-
13
b111 G
0H
b11 R
b11 E
1M
b11111111111111111111111111111111 I
b0 J
1!
#1215
0!
#1220
02
b11 S
11
1F
0)
b11111111111111111111111111111111 G
1-
b10 R
0M
b0 E
0L
1!
#1225
0!
#1230
1;
1>
12
1*
b100 S
0-
03
b111 G
b11 R
b10 E
1M
b11111111111111111111111111111110 I
b11111111111111111111111111111111 J
1!
#1235
0!
#1240
02
b101 S
0*
1?
b100 R
b11 E
1L
1!
#1245
0!
#1250
1;
1>
b110 S
1-
0?
b111 E
1T
b101 R
1!
#1255
0!
#1260
1;
1>
1'
14
b0 S
1,
0-
1=
b110 R
b110 I
b111 J
1!
#1265
0!
#1270
1=
1?
0C
1(
16
18
b1 S
0,
0'
0D
1+
b1101011 U
b0 R
1N
b1101011 0
b1101011 K
15
1!
1/
1A
1"
#1275
0!
#1280
12
13
01
1;
1>
0?
b10 S
0F
1)
1C
0(
04
06
08
05
0'
1D
0+
b11 E
0T
b1 R
1O
0N
1!
0/
0A
0"
#1285
0!
#1290
02
b11 S
11
1F
0)
b110 G
1-
b10 R
0O
0M
b0 E
0L
1!
b10000000 .
b10000000 @
b10000000 $
b10000000 B
#1295
0!
#1300
1=
12
1;
1>
0F
1)
b10 S
0-
13
b111 G
1H
b11 R
b10 E
1M
b101 I
b110 J
1!
#1305
0!
#1310
02
b11 S
1F
0)
b101 G
1-
b10 R
0M
b1 E
1L
1!
#1315
0!
#1320
1=
12
1;
1>
0F
1)
b10 S
0-
13
b111 G
b11 R
b11 E
1M
b100 I
b101 J
1!
#1325
0!
#1330
02
b11 S
1F
0)
b100 G
1-
b10 R
b1 E
0M
1!
#1335
0!
#1340
1=
12
01
1;
1>
0F
1)
b10 S
0-
13
b111 G
0H
b11 R
b11 E
1M
b11 I
b100 J
1!
#1345
0!
#1350
02
b11 S
11
1F
0)
b11 G
1-
b10 R
0M
b0 E
0L
1!
#1355
0!
#1360
1=
12
1;
1>
0F
1)
b10 S
0-
13
b111 G
1H
b11 R
b10 E
1M
b10 I
b11 J
1!
#1365
0!
#1370
02
b11 S
1F
0)
b10 G
1-
b10 R
0M
b1 E
1L
1!
#1375
0!
#1380
1=
12
01
1;
1>
0F
1)
b10 S
0-
13
b111 G
0H
b11 R
b11 E
1M
b1 I
b10 J
1!
#1385
0!
#1390
02
b11 S
11
1F
0)
b1 G
1-
b10 R
0M
b0 E
0L
1!
#1395
0!
#1400
1=
12
1;
1>
0F
1)
b10 S
0-
13
b111 G
1H
b11 R
b10 E
1M
b0 I
b1 J
1!
#1405
0!
#1410
02
b11 S
1F
0)
b0 G
1-
b10 R
0M
b1 E
1L
1!
#1415
0!
#1420
1=
12
1;
1>
0F
1)
b10 S
0-
13
b111 G
b11 R
b11 E
1M
b11111111111111111111111111111111 I
b0 J
1!
#1425
0!
#1430
02
b11 S
1F
0)
b11111111111111111111111111111111 G
1-
b10 R
b1 E
0M
1!
#1435
0!
#1440
1;
1>
12
1*
b100 S
0-
03
b111 G
0H
b11 R
b11 E
1M
b11111111111111111111111111111110 I
b11111111111111111111111111111111 J
1!
#1445
0!
#1450
02
b101 S
0*
1?
b100 R
1!
#1455
0!
#1460
1;
1>
b110 S
1-
0?
b111 E
1T
b101 R
1!
#1465
0!
#1470
1;
1>
1'
14
b0 S
1,
0-
1=
b110 R
b110 I
b111 J
1!
#1475
0!
#1480
1=
1?
0C
1(
16
18
b1 S
0,
0'
0D
1+
1H
b10000000 U
b0 R
1N
b10000000 0
b10000000 K
15
1!
1/
1A
1"
#1485
0!
#1490
12
13
1;
1>
0?
b10 S
0F
1)
1C
0(
04
06
08
05
0'
1D
0+
b11 E
0T
b1 R
1O
0N
1!
0/
0A
0"
#1495
0!
#1500
02
b11 S
1F
0)
b110 G
1-
b10 R
0O
b1 E
0M
1!
b10010101 .
b10010101 @
b10010101 $
b10010101 B
#1505
0!
#1510
1=
12
01
1;
1>
0F
1)
b10 S
0-
13
b111 G
0H
b11 R
b11 E
1M
b101 I
b110 J
1!
#1515
0!
#1520
02
b11 S
11
1F
0)
b101 G
1-
b10 R
0M
b0 E
0L
1!
#1525
0!
#1530
1=
12
01
1;
1>
0F
1)
b10 S
0-
13
b111 G
b11 R
b10 E
1M
b100 I
b101 J
1!
#1535
0!
#1540
02
b11 S
11
1F
0)
b100 G
1-
b10 R
b0 E
0M
1!
#1545
0!
#1550
1=
12
01
1;
1>
0F
1)
b10 S
0-
13
b111 G
b11 R
b10 E
1M
b11 I
b100 J
1!
#1555
0!
#1560
02
b11 S
11
1F
0)
b11 G
1-
b10 R
b0 E
0M
1!
#1565
0!
#1570
1=
12
01
1;
1>
0F
1)
b10 S
0-
13
b111 G
b11 R
b10 E
1M
b10 I
b11 J
1!
#1575
0!
#1580
02
b11 S
11
1F
0)
b10 G
1-
b10 R
b0 E
0M
1!
#1585
0!
#1590
1=
12
01
1;
1>
0F
1)
b10 S
0-
13
b111 G
b11 R
b10 E
1M
b1 I
b10 J
1!
#1595
0!
#1600
02
b11 S
11
1F
0)
b1 G
1-
b10 R
b0 E
0M
1!
#1605
0!
#1610
1=
12
01
1;
1>
0F
1)
b10 S
0-
13
b111 G
b11 R
b10 E
1M
b0 I
b1 J
1!
#1615
0!
#1620
02
b11 S
11
1F
0)
b0 G
1-
b10 R
b0 E
0M
1!
#1625
0!
#1630
1=
12
01
1;
1>
0F
1)
b10 S
0-
13
b111 G
b11 R
b10 E
1M
b11111111111111111111111111111111 I
b0 J
1!
#1635
0!
#1640
02
b11 S
11
1F
0)
b11111111111111111111111111111111 G
1-
b10 R
b0 E
0M
1!
#1645
0!
#1650
1;
1>
12
1*
b100 S
0-
03
b111 G
1H
b11 R
b10 E
1M
b11111111111111111111111111111110 I
b11111111111111111111111111111111 J
1!
#1655
0!
#1660
02
b101 S
0*
1?
b100 R
b11 E
1L
1!
#1665
0!
#1670
1;
1>
b110 S
1-
0?
b111 E
1T
b101 R
1!
#1675
0!
#1680
1;
1>
1'
14
b0 S
1,
0-
1=
b110 R
b110 I
b111 J
1!
#1685
0!
#1690
1=
1?
0C
1(
16
18
b1 S
0,
0'
0D
1+
b10010101 U
b0 R
1N
b10010101 0
b10010101 K
15
1!
1/
1A
1"
#1695
0!
#1700
12
13
1;
1>
0?
b10 S
0F
1)
1C
0(
04
06
08
05
0'
1D
0+
b11 E
0T
b1 R
1O
0N
1!
0/
0A
0"
#1705
0!
#1710
02
b11 S
1F
0)
b110 G
1-
b10 R
0O
b1 E
0M
1!
b10101010 .
b10101010 @
b10101010 $
b10101010 B
#1715
0!
#1720
1=
12
01
1;
1>
0F
1)
b10 S
0-
13
b111 G
0H
b11 R
b11 E
1M
b101 I
b110 J
1!
#1725
0!
#1730
02
b11 S
11
1F
0)
b101 G
1-
b10 R
0M
b0 E
0L
1!
#1735
0!
#1740
1=
12
01
1;
1>
0F
1)
b10 S
0-
13
b111 G
b11 R
b10 E
1M
b100 I
b101 J
1!
#1745
0!
#1750
02
b11 S
11
1F
0)
b100 G
1-
b10 R
b0 E
0M
1!
#1755
0!
#1760
1=
12
1;
1>
0F
1)
b10 S
0-
13
b111 G
1H
b11 R
b10 E
1M
b11 I
b100 J
1!
#1765
0!
#1770
02
b11 S
1F
0)
b11 G
1-
b10 R
0M
b1 E
1L
1!
#1775
0!
#1780
1=
12
01
1;
1>
0F
1)
b10 S
0-
13
b111 G
0H
b11 R
b11 E
1M
b10 I
b11 J
1!
#1785
0!
#1790
02
b11 S
11
1F
0)
b10 G
1-
b10 R
0M
b0 E
0L
1!
#1795
0!
#1800
1=
12
1;
1>
0F
1)
b10 S
0-
13
b111 G
1H
b11 R
b10 E
1M
b1 I
b10 J
1!
#1805
0!
#1810
02
b11 S
1F
0)
b1 G
1-
b10 R
0M
b1 E
1L
1!
#1815
0!
#1820
1=
12
01
1;
1>
0F
1)
b10 S
0-
13
b111 G
0H
b11 R
b11 E
1M
b0 I
b1 J
1!
#1825
0!
#1830
02
b11 S
11
1F
0)
b0 G
1-
b10 R
0M
b0 E
0L
1!
#1835
0!
#1840
1=
12
1;
1>
0F
1)
b10 S
0-
13
b111 G
1H
b11 R
b10 E
1M
b11111111111111111111111111111111 I
b0 J
1!
#1845
0!
#1850
02
b11 S
1F
0)
b11111111111111111111111111111111 G
1-
b10 R
0M
b1 E
1L
1!
#1855
0!
#1860
1;
1>
12
1*
b100 S
0-
03
b111 G
b11 R
b11 E
1M
b11111111111111111111111111111110 I
b11111111111111111111111111111111 J
1!
#1865
0!
#1870
02
b101 S
0*
1?
b100 R
1!
#1875
0!
#1880
1;
1>
b110 S
1-
0?
b111 E
1T
b101 R
1!
#1885
0!
#1890
1;
1>
1'
14
b0 S
1,
0-
1=
b110 R
b110 I
b111 J
1!
#1895
0!
#1900
1=
1?
0C
1(
16
18
b1 S
0,
0'
0D
1+
b10101010 U
b0 R
1N
b10101010 0
b10101010 K
15
1!
1/
1A
1"
#1905
0!
#1910
12
13
1;
1>
0?
b10 S
0F
1)
1C
0(
04
06
08
05
0'
1D
0+
b11 E
0T
b1 R
1O
0N
1!
0/
0A
0"
#1915
0!
#1920
02
b11 S
1F
0)
b110 G
1-
b10 R
0O
b1 E
0M
1!
b10111111 .
b10111111 @
b10111111 $
b10111111 B
#1925
0!
#1930
1=
12
01
1;
1>
0F
1)
b10 S
0-
13
b111 G
0H
b11 R
b11 E
1M
b101 I
b110 J
1!
#1935
0!
#1940
02
b11 S
11
1F
0)
b101 G
1-
b10 R
0M
b0 E
0L
1!
